Week,Origin,Supplier,Grower,Reference,Pallet,Size,Stock,Tier,Current age in days,Pressure,remarks (info),Planned client,Comment Ripe,Cel:,DATE,Warm up temp,Warm up duration,Ripening Temp (C),Ethylene (ppm),Ethylene duration,1st Pack,Quantity,Green,2nd Pack,Quantity,Green,3rd Pack,Quantity,Green,4th Pack,Quantity,Green,-,Boxes B,Boxes Waste,Total,Origin pack date,Arrive Date,Allocated,Transport days,Days in Fridge,Days in ripe,Age at 1st pack
1-1,Morocco,HALLS_FRANCE,44935,33288,33288-06,22 (4kg),220,3,44972,,1-1a,,stage4/grey pulp,15,-,,,-,-,-,02/01,220,,,,,,,,,,,0,0%,0%,0%,,13-Dec,29-Dec,44908,16,4,44928
1-1,Morocco,MAROCAVO,12618,33308,33308-14,22 (10kg),100,3,72,,1-1a,,2-8kg,18,30/12,,,12,0,-,02/01,100,,,,,,,,,,,0,0%,5%,5%,5-Dec,15-Dec,29-Dec,10,14,4,28
1-1,Morocco,MAROCAVO,12618,33308,33308-15,22 (10kg),100,3,72,,1-1a,,2-8kg,18,30/12,,,12,0,-,02/01,100,,,,,,,,,,,0,0%,4%,4%,5-Dec,15-Dec,29-Dec,10,14,4,28
1-1,Morocco,MAROCAVO,12618,33308,33308-16,22 (10kg),100,3,72,,1-1a,,2-8kg,18,30/12,,,12,0,-,02/01,100,,,,,,,,,,,0,3%,5%,8%,5-Dec,15-Dec,29-Dec,10,14,4,28
1-1,Morocco,MAROCAVO,12618,33308,33308-20,22 (10kg),64,3,72,,1-1a 64-22 + 36-26,,2-8kg,18,30/12,,,12,0,-,02/01,64,,,,,,,,,,,0,0%,0%,0%,5-Dec,15-Dec,29-Dec,10,14,4,28
1-1,Morocco,MAROCAVO,12618,33308,33308-20,26 (10kg),36,3,44972,,1-1a,,2-8kg,18,30/12,,,12,0,-,02/01,36,,,,,,,,,,,0,0%,0%,0%,,15-Dec,29-Dec,44910,14,4,44928
1-1,Morocco,MAROCAVO,12618,33308,33308-05,22 (4kg),100,3,44972,,1-1a,,2-8kg,18,30/12,,,12,0,-,02/01,100,,,,,,,,,,,0,0%,5%,5%,,15-Dec,29-Dec,44910,14,4,44928
1-1,Colombia,AGUACATES FLOREZ,2080,33277,12418,24 (10kg),120,3,80,,"1-1a 15% lenticel, 7%sunburn",,,17,30/12,,,17,80,24,02/01,18,,03/01,102,,,,,,,,0,5%,4%,9%,27-Nov,19-Dec,29-Dec,22,10,4,36
1-1,Colombia,AGUACATES FLOREZ,2080,33277,12425,24 (10kg),120,3,80,,"1-1a 15% lenticel, 7%sunburn",,,17,30/12,,,17,80,24,03/01,120,7,05/01,7,,,,,,,,0,5%,4%,9%,27-Nov,19-Dec,29-Dec,22,10,5,37
1-1,Colombia,AGUACATES FLOREZ,2080,33277,12429,24 (10kg),120,3,80,,"1-1a 15% lenticel, 7%sunburn",,,17,30/12,,,17,80,24,02/01,74,,03/01,46,,,,,,,,0,3%,3%,7%,27-Nov,19-Dec,29-Dec,22,10,4,36
1-1,Chile,SUBSOLE,"3,857,660,181",33272,2685861716,20 (10kg),120,3,91,,1-1a,,,16,30/12,,,15.5,80,24,03/01,120,,,,,,,,,,,0,1%,3%,3%,16-Nov,21-Dec,29-Dec,35,8,5,48
1-1,Colombia,AGUACATES FLOREZ,2080,33302,12585,24 (4kg),264,3,73,,1-1a/15%lenticel - 15%sunburn,,,17,30/12,,,17,80,24,06/01,264,,,,,,,,,,,0,2%,0%,2%,4-Dec,26-Dec,29-Dec,22,3,8,33
1-1,Colombia,AGUACATES FLOREZ,2080,33302,12590,18 (4kg),264,3,73,,1-1a/15%lenticel - 15%sunburn,,,17,30/12,,,17,80,24,03/01,264,,,,,,,,,,,0,0%,0%,0%,4-Dec,26-Dec,29-Dec,22,3,5,30
1-1,Colombia,AGUACATES FLOREZ,2080,33302,12594,24 (4kg),264,3,73,,1-1a/15%lenticel - 15%sunburn,,,17,30/12,,,17,80,24,04/01,264,,,,,,,,,,,0,4%,0%,4%,4-Dec,26-Dec,29-Dec,22,3,6,31
1-1,Colombia,AGUACATES FLOREZ,2080,33302,12598,24 (4kg),264,3,73,,1-1a/15%lenticel - 15%sunburn,,,17,30/12,,,17,80,24,03/01,264,134,06/01,134,106,09/01,106,,,,,0,4%,6%,10%,4-Dec,26-Dec,29-Dec,22,3,5,30
1-1,Colombia,AGUACATES FLOREZ,2080,33302,12605,20 (4kg),264,3,73,,1-1a/15%lenticel - 15%sunburn,,,17,30/12,,,17,80,24,02/01,264,94,06/01,94,,,,,,,,0,0%,0%,0%,4-Dec,26-Dec,29-Dec,22,3,4,29
1-1,Colombia,AGUACATES FLOREZ,2080,33302,12607,24 (4kg),264,3,73,,1-1a/15%lenticel - 15%sunburn,,,17,30/12,,,17,80,24,04/01,264,,,,,,,,,,,0,4%,0%,5%,4-Dec,26-Dec,29-Dec,22,3,6,31
1-1,Colombia,AGUACATES FLOREZ,2080,33302,12623,20 (4kg),264,3,71,,1-1a/15%lenticel - 15%sunburn,,,17,30/12,,,17,80,24,02/01,264,,,,,,,,,,,0,2%,1%,3%,6-Dec,26-Dec,29-Dec,20,3,4,27
1-1,Colombia,AGUACATES FLOREZ,2080,33303,12734,24 (4kg),264,3,68,,1-1a/15%lenticel - 15%sunburn,,,17,30/12,,,17,80,24,03/01,264,135,05/01,135,,,,,,,,0,2%,0%,2%,9-Dec,26-Dec,29-Dec,17,3,5,25
1-1,Colombia,AGUACATES FLOREZ,2080,33303,12744,20 (4kg),264,3,68,,1-1a/15%lenticel - 15%sunburn,,,17,30/12,,,17,80,24,03/01,264,21,06/01,21,,,,,,,,0,1%,1%,2%,9-Dec,26-Dec,29-Dec,17,3,5,25
1-1,Colombia,AGUACATES FLOREZ,2080,33303,12748,24 (4kg),264,3,68,,1-1a/15%lenticel - 15%sunburn,,,17,30/12,,,17,80,24,03/01,214,,05/01,50,,,,,,,,0,0%,0%,0%,9-Dec,26-Dec,29-Dec,17,3,5,25
1-1,Morocco,FRUITPRO-S,25842,33327,33327-05,16 (4kg),230,3,61,,1-1a,,,16,30/12,,,15.5,80,24,04/01,230,,,,,,,,,,,0,0%,3%,3%,16-Dec,27-Dec,29-Dec,11,2,6,19
1-1,Morocco,FRUITPRO-S,25842,33327,33327-06,16 (4kg),230,3,61,,1-1a,,,16,30/12,,,15.5,80,24,03/01,230,,,,,,,,,,,0,0%,2%,2%,16-Dec,27-Dec,29-Dec,11,2,5,18
1-1,Morocco,FRUITPRO-S,25842,33327,33327-07,16 (4kg),230,3,61,,1-1a,,,16,30/12,,,15.5,80,24,03/01,230,,,,,,,,,,,0,2%,0%,2%,16-Dec,27-Dec,29-Dec,11,2,5,18
1-1,Morocco,FRUITPRO-S,25842,33327,33327-08,16 (4kg),230,3,61,,1-1a,,,16,30/12,,,15.5,80,24,04/01,230,,,,,,,,,,,0,0%,3%,3%,16-Dec,27-Dec,29-Dec,11,2,6,19
1-1,Morocco,FRUITPRO-S,25842,33327,33327-23,20 (4kg),230,3,61,,1-1a,,,16,30/12,,,15.5,80,24,03/01,146,,05/01,84,,,,,,,,0,1%,2%,3%,16-Dec,27-Dec,29-Dec,11,2,5,18
1-1,Chile,SUBSOLE,38576,33272,2685861691,22 (10kg),120,3,91,,1-1b,,,16,30/12,,,15.5,80,24,04/01,120,,,,,,,,,,,0,0%,7%,7%,16-Nov,21-Dec,30-Dec,35,9,5,49
1-1,Chile,SUBSOLE,38576,33272,2685861698,22 (10kg),120,3,91,,1-1b,,,16,30/12,,,15.5,80,24,04/01,120,,,,,,,,,,,0,0%,7%,7%,16-Nov,21-Dec,30-Dec,35,9,5,49
1-1,Chile,SUBSOLE,38576,33272,2685861705,22 (10kg),120,3,91,,1-1b,,,16,30/12,,,15.5,80,24,04/01,120,,,,,,,,,,,0,0%,7%,7%,16-Nov,21-Dec,30-Dec,35,9,5,49
1-1,Colombia,AGUACATES FLOREZ,2080,33277,12408,22 (4kg),264,3,81,,"1-1b 15% lenticel, 7%sunburn",,,17,30/12,,,17,80,24,02/01,264,,,,,,,,,,,0,2%,2%,4%,26-Nov,19-Dec,30-Dec,23,11,3,37
1-1,Colombia,AGUACATES FLOREZ,2080,33302,12604,18 (4kg),264,3,73,,1-1b/15%lenticel - 15%sunburn,,,17,30/12,,,17,80,24,03/01,264,,,,,,,,,,,0,4%,0%,4%,4-Dec,26-Dec,30-Dec,22,4,4,30
1-1,Colombia,AGUACATES FLOREZ,2080,33302,12631,18 (4kg),264,3,71,,1-1b/15%lenticel - 15%sunburn,,,17,30/12,,,17,80,24,03/01,264,37,06/01,37,,,,,,,,0,1%,2%,3%,6-Dec,26-Dec,30-Dec,20,4,4,28
1-1,Morocco,MAROCAVO,12618,33323,33323-01,12 (10kg),90,3,57,,1-1b 100% st1,,mixed ripe,20,-,,,-,-,-,02/01,90,10,03/01,10,,,,,,,,0,0%,0%,0%,20-Dec,27-Dec,30-Dec,7,3,3,13
1-1,Morocco,MAROCAVO,12618,33323,33323-02,14 (10kg),90,3,57,,1-1b (C15) 100% st1,,mixed ripe,18,30/12,,,12,0,-,02/01,90,32,03/01,32,,,,,,,,0,6%,9%,14%,20-Dec,27-Dec,30-Dec,7,3,3,13
1-1,Morocco,MAROCAVO,12618,33323,33323-03,14 (10kg),90,3,57,,"1-1b 70% st1, 10% st3, 10% st4, 10% st5",,mixed ripe,18,30/12,,,12,0,-,02/01,90,17,02/01,17,,,,,,,,0,4%,9%,13%,20-Dec,27-Dec,30-Dec,7,3,3,13
1-1,Morocco,MAROCAVO,12618,33323,33323-04,14 (10kg),90,3,57,,1-1b 100% st1,,mixed ripe,18,30/12,,,12,0,-,03/01,90,,,,,,,,,,,0,2%,4%,7%,20-Dec,27-Dec,30-Dec,7,3,4,14
1-1,Morocco,MAROCAVO,12618,33323,33323-07,16 (10kg),90,3,57,,"1-1b 30% st 1, 50% st2, 20% st 3",,mixed ripe,20,-,,,-,-,-,02/01,90,,,,,,,,,,,0,6%,12%,18%,20-Dec,27-Dec,30-Dec,7,3,3,13
1-1,Morocco,MAROCAVO,12618,33323,33323-12,16 (10kg),90,3,57,,"1-1b 60% st1, 40% st 3",,mixed ripe,20,-,,,-,-,-,02/01,90,18,04/01,18,,,,,,,,0,0%,13%,13%,20-Dec,27-Dec,30-Dec,7,3,3,13
1-1,Morocco,MAROCAVO,12618,33323,33323-15,18 (10kg),90,3,57,,"1-1b 70% st3, 30% st4",,mixed ripe,20,-,,,-,-,-,04/01,57,,05/01,33,,,,,,,,0,0%,19%,19%,20-Dec,27-Dec,30-Dec,7,3,5,15
1-1,Morocco,MAROCAVO,12618,33323,33323-20,20 (10kg),90,3,57,,"1-1b 40% st3, 60% st4",,mixed ripe,20,-,,,-,-,-,06/01,90,,,,,,,,,,,0,0%,33%,33%,20-Dec,27-Dec,30-Dec,7,3,7,17
1-1,Morocco,MAROCAVO,12618,33323,33323-25,26 (10kg),90,3,57,,"1-1b - size 26(C15), 30% st3, 60% st4, 10% st5",,mixed ripe,20,-,,,-,-,-,30/12,90,17,02/01,17,,,,,,,,0,0%,2%,2%,20-Dec,27-Dec,30-Dec,7,3,365,375
1-1,Morocco,MAROCAVO,12618,33323,33323-26,26 (10kg),90,3,57,,"1-1b 50% st3, 50% st4",,mixed ripe,20,-,,,-,-,-,02/01,90,11,06/11,11,,,,,,,,0,4%,9%,13%,20-Dec,27-Dec,30-Dec,7,3,3,13
1-1,Morocco,FRUITPRO-S,25842,33327,33327-09,16 (4kg),230,3,44972,,1-1b,,,16,30/12,,,15.5,80,24,02/01,230,,,,,,,,,,,0,1%,0%,1%,,27-Dec,30-Dec,44922,3,3,44928
1-1,Morocco,FRUITPRO-S,25842,33327,33327-10,16 (4kg),230,3,44972,,1-1b,,,16,30/12,,,15.5,80,24,02/01,111,,04/01,119,,,,,,,,0,0%,3%,3%,,27-Dec,30-Dec,44922,3,3,44928
1-1,Morocco,FRUITPRO-S,25842,33327,33327-11,16 (4kg),230,3,44972,,1-1b,,,16,30/12,,,15.5,80,24,05/01,230,,,,,,,,,,,0,0%,1%,1%,,27-Dec,30-Dec,44922,3,6,44931
1-1,Morocco,FRUITPRO-S,25842,33327,33327-12,18 (4kg),230,3,44972,,1-1b,,,16,30/12,,,15.5,80,24,04/01,230,,,,,,,,,,,0,1%,0%,1%,,27-Dec,30-Dec,44922,3,5,44930
1-1,Morocco,FRUITPRO-S,25842,33327,33327-13,18 (4kg),230,3,44972,,1-1b,,,16,30/12,,,15.5,80,24,04/01,230,,,,,,,,,,,0,0%,0%,1%,,27-Dec,30-Dec,44922,3,5,44930
1-1,Morocco,FRUITPRO-S,25842,33327,33327-24,20 (4kg),230,3,44972,,1-1b,,,16,30/12,,,15.5,80,24,05/01,230,,,,,,,,,,,0,1%,1%,2%,,27-Dec,30-Dec,44922,3,6,44931
1-1,Morocco,FRUITPRO-S,25842,33327,33327-25,20 (4kg),230,3,44972,,1-1b,,,16,30/12,,,15.5,80,24,05/01,230,,,,,,,,,,,0,2%,1%,3%,,27-Dec,30-Dec,44922,3,6,44931
1-1,Morocco,FRUITPRO-S,25842,33327,33327-26,20 (4kg),230,3,44972,,1-1b,,,16,30/12,,,15.5,80,24,05/01,230,,,,,,,,,,,0,1%,1%,2%,,27-Dec,30-Dec,44922,3,6,44931
1-1,Morocco,MAROCAVO,12618,33323,33323-06,14 (10kg),90,3,57,,1-1c 100% st1,,mixed ripe,18,30/12,,,12,0,-,03/01,90,9,04/01,9,,,,,,,,0,3%,4%,8%,20-Dec,27-Dec,30-Dec,7,3,4,14
1-1,Spain,JALHUCA,,33342,33342-01,Bio 24 (4kg),240,3,48,,1-1c,,,18,2/1,,,19,80,24,04/01,107,61,05/01,22,,06/01,20,,09/01,152,,0,0%,4%,4%,29-Dec,30-Dec,2-Jan,1,3,2,6
1-1,Colombia,AGUACATES FLOREZ,2080,33302,12583,22 (4kg),264,3,73,,"1-1d 15% lenticel, 7%sunburn",,,17,30/12,,,17,80,24,04/01,264,,,,,,,,,,,0,1%,0%,2%,4-Dec,26-Dec,30-Dec,22,4,5,31
1-1,Colombia,AGUACATES FLOREZ,2080,33277,12427,22 (4kg),264,3,80,,"1-1d 15% lenticel, 7%sunburn",,,17,30/12,,,17,80,24,03/01,264,,,,,,,,,,,0,4%,1%,5%,27-Nov,19-Dec,30-Dec,22,11,4,37
1-1,Colombia,AGUACATES FLOREZ,2080,33277,12416,22 (4kg),264,3,80,,"1-1d 15% lenticel, 7%sunburn",,,17,30/12,,,17,80,24,02/01,264,,,,,,,,,,,0,3%,2%,5%,27-Nov,19-Dec,30-Dec,22,11,3,36
1-1,Colombia,AGUACATES FLOREZ,2080,33277,12415,22 (4kg),264,3,80,,"1-1d 15% lenticel, 7%sunburn",,,17,30/12,,,17,80,24,03/01,264,,,,,,,,,,,0,4%,1%,5%,27-Nov,19-Dec,30-Dec,22,11,4,37
1-1,Morocco,FRUITPRO-S,25842,33327,33327-22,18 (4kg),230,3,44972,,1-1d,,,16,30/12,,,15.5,80,24,05/01,230,,,,,,,,,,,0,2%,3%,5%,,27-Dec,30-Dec,44922,3,6,44931
1-2,Kenya,KAKUZI2 HOL,Kakuzi,33229,10504,28 (10kg),12,3,106,,"1-2a 5%lenticel, 5% sunburn",,,17,2/1,,,18,-,-,05/01,12,,,,,,,,,,,0,0%,0%,0%,1-Nov,5-Dec,2-Jan,34,28,3,65
1-2,Kenya,HALLS_FRANCE,97854,33283,7-264592,30 (10kg),120,3,44972,,1-2a,,Pallet already ripe 2-10 kg,20,2/1,,,-,-,-,05/01,120,30,06/01,30,,,,,,,,0,0%,13%,13%,,9-Dec,2-Jan,44904,24,3,44931
1-2,Morocco,MAROCAVO,12618,33308,33308-19,28 (10kg),100,3,72,,1-2a,,Pallet already ripe,20,2/1,,,-,-,-,05/01,100,,,,,,,,,,,0,0%,0%,0%,5-Dec,15-Dec,2-Jan,10,18,3,31
1-2,Colombia,AGUACATES FLOREZ,2080,33277,12432,22 (4kg),264,3,80,,"1-2a 15% lenticel, 7%sunburn",,triggered/coloured,18,3/1,,,19,80,24,06/01,264,,,,,,,,,,,0,0%,0%,0%,27-Nov,19-Dec,2-Jan,22,14,4,40
1-2,Colombia,AGUACATES FLOREZ,2080,33302,12551,22 (4kg),264,3,75,,1-2a/15%lenticel - 15%sunburn,,,18,2/1,,,19,80,24,06/01,264,,,,,,,,,,,0,5%,2%,6%,2-Dec,26-Dec,2-Jan,24,7,4,35
1-2,Colombia,AGUACATES FLOREZ,2080,33302,12552,24 (4kg),264,3,75,,1-2a/15%lenticel - 15%sunburn,,,18,2/1,,,19,80,24,05/01,260,,,,,,,,,,,4,0%,3%,3%,2-Dec,26-Dec,2-Jan,24,7,3,34
1-2,Colombia,AGUACATES FLOREZ,2080,33302,12584,24 (4kg),264,3,73,,1-2a/15%lenticel - 15%sunburn,,,18,2/1,,,19,80,24,06/01,264,,,,,,,,,,,0,2%,0%,2%,4-Dec,26-Dec,2-Jan,22,7,4,33
1-2,Colombia,AGUACATES FLOREZ,2080,33302,12591,22 (4kg),264,3,73,,1-2a/15%lenticel - 15%sunburn,,,18,2/1,,,19,80,24,06/01,264,,,,,,,,,,,0,5%,2%,7%,4-Dec,26-Dec,2-Jan,22,7,4,33
1-2,Colombia,AGUACATES FLOREZ,2080,33302,12632,18 (4kg),264,3,71,,1-2a/15%lenticel - 15%sunburn,,,18,2/1,,,19,80,24,06/01,264,,,,,,,,,,,0,2%,1%,2%,6-Dec,26-Dec,2-Jan,20,7,4,31
1-2,Colombia,AGUACATES FLOREZ,2080,33303,12657,26 (10kg),120,3,69,,1-2a/15%lenticel - 15%sunburn,,,18,2/1,,,19,80,24,06/01,66,,11/01,54,,,,,,,,0,4%,3%,8%,8-Dec,26-Dec,2-Jan,18,7,4,29
1-2,Colombia,AGUACATES FLOREZ,2080,33303,12686,30 (10kg),120,3,69,,1-2a/15%lenticel - 15%sunburn,,,18,2/1,,,19,80,24,11/01,68,,13/01,52,,,,,,,,0,0%,3%,3%,8-Dec,26-Dec,2-Jan,18,7,9,34
1-2,Morocco,FRUITPRO-S,25842,33327,33327-01,14 (4kg),230,3,44972,,1-2a,,,14,3/1,,,18,100,24,06/01,230,,,,,,,,,,,0,0%,0%,0%,,27-Dec,2-Jan,44922,6,4,44932
1-2,Morocco,FRUITPRO-S,25842,33327,33327-02,14 (4kg),230,3,44972,,1-2a,,,14,3/1,,,18,100,24,06/01,230,,,,,,,,,,,0,0%,1%,2%,,27-Dec,2-Jan,44922,6,4,44932
1-2,Morocco,FRUITPRO-S,25842,33327,33327-03,14 (4kg),230,3,44972,,1-2a,,,14,3/1,,,18,100,24,06/01,230,,,,,,,,,,,0,0%,2%,2%,,27-Dec,2-Jan,44922,6,4,44932
1-2,Morocco,FRUITPRO-S,25842,33327,33327-04,14 (4kg),230,3,44972,,1-2a,,,14,3/1,,,18,100,24,06/01,230,,,,,,,,,,,0,0%,1%,2%,,27-Dec,2-Jan,44922,6,4,44932
1-2,Morocco,FRUITPRO-S,25842,33327,33327-14,18 (4kg),230,3,44972,,1-2a,,,14,3/1,,,18,100,24,06/01,230,,,,,,,,,,,0,1%,2%,3%,,27-Dec,2-Jan,44922,6,4,44932
1-2,Morocco,FRUITPRO-S,25842,33327,33327-15,18 (4kg),230,3,44972,,1-2a,,,14,3/1,,,18,100,24,06/01,230,,,,,,,,,,,0,0%,0%,0%,,27-Dec,2-Jan,44922,6,4,44932
1-2,Morocco,FRUITPRO-S,25842,33327,33327-16,18 (4kg),230,3,44972,,1-2a,,,14,3/1,,,18,100,24,06/01,230,,,,,,,,,,,0,0%,0%,0%,,27-Dec,2-Jan,44922,6,4,44932
1-2,Morocco,FRUITPRO-S,25842,33327,33327-17,18 (4kg),230,3,44972,,1-2a,,,14,3/1,,,18,100,24,06/01,230,,,,,,,,,,,0,0%,0%,0%,,27-Dec,2-Jan,44922,6,4,44932
1-2,Colombia,AGUACATES FLOREZ,2080,33302,12595,22 (4kg),264,3,73,,1-2b/15%lenticel - 15%sunburn,,,18,2/1,,,19,80,24,06/01,264,,,,,,,,,,,0,5%,2%,7%,4-Dec,26-Dec,2-Jan,22,7,4,33
1-2,Morocco,FRUITPRO-S,25842,33327,33327-18,18 (4kg),230,3,44972,,1-2b,,,14,3/1,,,18,100,24,06/01,230,,,,,,,,,,,0,1%,2%,3%,,27-Dec,2-Jan,44922,6,4,44932
1-2,Morocco,EXPORT OPTIMUM (UK CC),44027,33328,33328-1,14 (4kg),240,3,56,,1-2b,,,14,3/1,,,18,100,24,05/01,240,,,,,,,,,,,0,5%,2%,7%,21-Dec,2-Jan,2-Jan,12,0,3,15
1-2,Morocco,EXPORT OPTIMUM (UK CC),44027,33328,33328-10,16 (4kg),240,3,56,,1-2b,,,14,3/1,,,18,100,24,06/01,240,,,,,,,,,,,0,4%,5%,10%,21-Dec,2-Jan,2-Jan,12,0,4,16
1-2,Morocco,EXPORT OPTIMUM (UK CC),44027,33328,33328-17,20 (4kg),240,3,56,,1-2b,,,14,3/1,,,18,100,24,05/01,240,,,,,,,,,,,0,0%,0%,0%,21-Dec,2-Jan,2-Jan,12,0,3,15
1-2,Morocco,EXPORT OPTIMUM (UK CC),44027,33328,33328-2,14 (4kg),240,3,56,,1-2b,,,14,3/1,,,18,100,24,05/01,240,,,,,,,,,,,0,5%,2%,7%,21-Dec,2-Jan,2-Jan,12,0,3,15
1-2,Morocco,EXPORT OPTIMUM (UK CC),44027,33328,33328-20,24 (4kg),240,3,56,,1-2b,,,14,3/1,,,18,100,24,06/01,240,28,12/01,26,,,2,,,,,0,2%,2%,4%,21-Dec,2-Jan,2-Jan,12,0,4,16
1-2,Morocco,EXPORT OPTIMUM (UK CC),44027,33328,33328-3,14 (4kg),240,3,56,,1-2b,,,14,3/1,,,18,100,24,05/01,240,,,,,,,,,,,0,5%,1%,6%,21-Dec,2-Jan,2-Jan,12,0,3,15
1-2,Morocco,EXPORT OPTIMUM (UK CC),44027,33328,33328-11,16 (4kg),240,3,56,,1-2c,,,14,3/1,,,18,100,24,06/01,240,,,,,,,,,,,0,4%,5%,9%,21-Dec,2-Jan,2-Jan,12,0,4,16
2-1,Colombia,AGUACATES FLOREZ,2080,33302,12599,22 (4kg),264,3,73,,2-1a/15%lenticel - 15%sunburn,,,14,5/1,,,19,100,24,11/01,264,,,,,,,,,,,0,8%,7%,15%,4-Dec,26-Dec,4-Jan,22,9,7,38
2-1,Colombia,AGUACATES FLOREZ,2080,33302,12606,22 (4kg),264,3,73,,2-1a/15%lenticel - 15%sunburn,,,14,5/1,,,19,100,24,11/01,264,,,,,,,,,,,0,8%,7%,15%,4-Dec,26-Dec,4-Jan,22,9,7,38
2-1,Colombia,AGUACATES FLOREZ,2080,33302,12624,22 (4kg),264,3,71,,2-1a/15%lenticel - 15%sunburn,,,14,5/1,,,19,100,24,10/01,264,,,,,,,,,,,0,14%,1%,15%,6-Dec,26-Dec,4-Jan,20,9,6,35
2-1,Colombia,AGUACATES FLOREZ,2080,33302,12630,22 (4kg),264,3,71,,2-1a/15%lenticel - 15%sunburn,,,14,5/1,,,19,100,24,10/01,264,,,,,,,,,,,0,14%,1%,15%,6-Dec,26-Dec,4-Jan,20,9,6,35
2-1,Colombia,AGUACATES FLOREZ,2080,33303,12662,26 (10kg),120,3,69,,2-1a/15%lenticel - 15%sunburn,,,14,5/1,,,19,100,24,09/01,120,,,,,,,,,,,0,10%,0%,10%,8-Dec,26-Dec,4-Jan,18,9,5,32
2-1,Colombia,AGUACATES FLOREZ,2080,33303,12663,26 (10kg),120,3,69,,2-1a/15%lenticel - 15%sunburn,,,14,5/1,,,19,100,24,09/01,120,,,,,,,,,,,0,10%,0%,10%,8-Dec,26-Dec,4-Jan,18,9,5,32
2-1,Colombia,AGUACATES FLOREZ,2080,33303,12733,22 (4kg),264,3,68,,2-1a/15%lenticel - 15%sunburn,,,14,5/1,,,19,100,24,10/01,264,,,,,,,,,,,0,0%,0%,0%,9-Dec,26-Dec,4-Jan,17,9,6,32
2-1,Colombia,AGUACATES FLOREZ,2080,33303,12747,22 (4kg),264,3,68,,2-1a/15%lenticel - 15%sunburn,,,14,5/1,,,19,100,24,10/01,264,,,,,,,,,,,0,0%,0%,0%,9-Dec,26-Dec,4-Jan,17,9,6,32
2-1,Morocco,FRUITPRO-S,25842,33327,33327-19,18 (4kg),230,3,44972,,2-1a,,,14,5/1,,,19,100,24,09/01,230,,,,,,,,,,,0,1%,0%,1%,,27-Dec,4-Jan,44922,8,5,44935
2-1,Morocco,FRUITPRO-S,25842,33327,33327-20,18 (4kg),230,3,44972,,2-1a,,,14,5/1,,,19,100,24,09/01,230,,,,,,,,,,,0,1%,0%,1%,,27-Dec,4-Jan,44922,8,5,44935
2-1,Morocco,FRUITPRO-S,25842,33327,33327-21,18 (4kg),230,3,44972,,2-1a,,,14,5/1,,,19,100,24,09/01,230,,,,,,,,,,,0,1%,0%,1%,,27-Dec,4-Jan,44922,8,5,44935
2-1,Morocco,MOROCCANPURE,44935,33332,33332-05,20 (4kg),220,3,54,,2-1a,,,18,5/1,,,17,80,24,10/01,220,,,,,,,,,,,0,2%,5%,6%,23-Dec,30-Dec,4-Jan,7,5,6,18
2-1,Morocco,MOROCCANPURE,44935,33332,33332-09,20 (4kg),220,3,54,,2-1a,,,18,5/1,,,17,80,24,10/01,220,,,,,,,,,,,0,2%,4%,5%,23-Dec,30-Dec,4-Jan,7,5,6,18
2-1,Morocco,MOROCCANPURE,44935,33332,33332-15,20 (4kg),220,3,54,,2-1a,,,18,5/1,,,17,80,24,10/01,220,,,,,,,,,,,0,2%,4%,5%,23-Dec,30-Dec,4-Jan,7,5,6,18
2-1,Morocco,MOROCCANPURE,44935,33332,33332-16,20 (4kg),220,3,54,,2-1a,,,18,5/1,,,17,80,24,10/01,136,,11/01,84,,,,,,,,0,4%,5%,9%,23-Dec,30-Dec,4-Jan,7,5,6,18
2-1,Morocco,MOROCCANPURE,44935,33332,33332-19,20 (4kg),220,3,54,,2-1a,,,18,5/1,,,17,80,24,10/01,220,,,,,,,,,,,0,2%,4%,5%,23-Dec,30-Dec,4-Jan,7,5,6,18
2-1,Morocco,MOROCCANPURE,44935,33332,33332-24,20 (4kg),220,3,54,,2-1a,,,18,5/1,,,17,80,24,12/01,220,,,,,,,,,,,0,0%,0%,0%,23-Dec,30-Dec,4-Jan,7,5,8,20
2-1,Morocco,MOROCCANPURE,44935,33341,33341-04,22 (4kg),220,3,54,,2-1a,,,18,5/1,,,17,80,24,09/01,220,,,,,,,,,,,0,2%,1%,3%,23-Dec,30-Dec,4-Jan,7,5,5,17
2-1,Morocco,MOROCCANPURE,44935,33341,33341-05,22 (4kg),220,3,54,,2-1a,,,18,5/1,,,17,80,24,09/01,220,,,,,,,,,,,0,2%,1%,4%,23-Dec,30-Dec,4-Jan,7,5,5,17
2-1,Morocco,MOROCCANPURE,44935,33341,33341-06,22 (4kg),220,3,54,,2-1a,,,18,5/1,,,17,80,24,09/01,220,,,,,,,,,,,0,2%,0%,2%,23-Dec,30-Dec,4-Jan,7,5,5,17
2-1,Morocco,MOROCCANPURE,44935,33341,33341-07,22 (4kg),220,3,54,,2-1a,,,18,5/1,,,17,80,24,09/01,220,26,12/01,26,,,,,,,,0,2%,1%,3%,23-Dec,30-Dec,4-Jan,7,5,5,17
2-1,Morocco,MOROCCANPURE,44935,33341,33341-08,24 (4kg),220,3,54,,2-1a,,,18,5/1,,,17,80,24,09/01,220,,,,,,,,,,,0,1%,4%,5%,23-Dec,30-Dec,4-Jan,7,5,5,17
2-1,Morocco,MOROCCANPURE,44935,33341,33341-09,24 (4kg),220,3,54,,2-1a,,,18,5/1,,,17,80,24,09/01,220,,,,,,,,,,,0,1%,4%,5%,23-Dec,30-Dec,4-Jan,7,5,5,17
2-1,Morocco,MOROCCANPURE,44935,33341,33341-26,12 (4kg),220,3,54,,2-1a,MAXIMA,,18,5/1,,,17,80,24,13/01,220,,,,,,,,,,,0,0%,0%,0%,23-Dec,30-Dec,4-Jan,7,5,9,21
2-1,Morocco,EXPORT OPTIMUM (UK CC),44027,33328,33328-13,18 (4kg),240,3,56,,2-1a,,,15,5/1,,,16,80,24,10/01,240,,,,,,,,,,,0,3%,0%,4%,21-Dec,2-Jan,4-Jan,12,2,6,20
2-1,Morocco,EXPORT OPTIMUM (UK CC),44027,33328,33328-14,18 (4kg),240,3,56,,2-1a,,,15,5/1,,,16,80,24,10/01,240,151,11/01,151,,,,,,,,0,3%,0%,3%,21-Dec,2-Jan,4-Jan,12,2,6,20
2-1,Morocco,EXPORT OPTIMUM (UK CC),44027,33328,33328-15,18 (4kg),240,3,56,,2-1a,,,15,5/1,,,16,80,24,10/01,240,,,,,,,,,,,0,3%,0%,4%,21-Dec,2-Jan,4-Jan,12,2,6,20
2-1,Morocco,EXPORT OPTIMUM (UK CC),44027,33328,33328-16,18 (4kg),240,3,56,,2-1a,,,15,5/1,,,16,80,24,11/01,240,,,,,,,,,,,0,0%,0%,0%,21-Dec,2-Jan,4-Jan,12,2,7,21
2-1,Morocco,EXPORT OPTIMUM (UK CC),44027,33328,33328-18,20 (4kg),240,3,56,,2-1a,,,15,5/1,,,16,80,24,09/01,240,,,,,,,,,,,0,2%,2%,4%,21-Dec,2-Jan,4-Jan,12,2,5,19
2-1,Morocco,EXPORT OPTIMUM (UK CC),44027,33328,33328-19,20 (4kg),240,3,56,,2-1a,,,15,5/1,,,16,80,24,09/01,240,,,,,,,,,,,0,2%,2%,4%,21-Dec,2-Jan,4-Jan,12,2,5,19
2-1,Morocco,EXPORT OPTIMUM (UK CC),44027,33328,33328-4,14 (4kg),240,3,56,,2-1a,,,15,5/1,,,16,80,24,12/01,240,,,,,,,,,,,0,0%,0%,0%,21-Dec,2-Jan,4-Jan,12,2,8,22
2-1,Morocco,EXPORT OPTIMUM (UK CC),44027,33328,33328-7,16 (4kg),240,3,56,,2-1a,,,15,5/1,,,16,80,24,09/01,240,,,,,,,,,,,0,5%,3%,8%,21-Dec,2-Jan,4-Jan,12,2,5,19
2-1,Morocco,EXPORT OPTIMUM (UK CC),44027,33331,33331-01,12 (4kg),240,3,55,,2-1a,MAXIMA,,15,5/1,,,16,80,24,09/01,240,,,,,,,,,,,0,6%,5%,11%,22-Dec,2-Jan,4-Jan,11,2,5,18
2-1,Morocco,EXPORT OPTIMUM (UK CC),44027,33331,33331-02,12 (4kg),240,3,55,,2-1a,MAXIMA,,15,5/1,,,16,80,24,09/01,123,,11/01,117,,,,,,,,0,3%,3%,7%,22-Dec,2-Jan,4-Jan,11,2,5,18
2-1,Morocco,EXPORT OPTIMUM (UK CC),44027,33331,33331-20,24 (4kg),240,3,55,,2-1a,,,15,5/1,,,16,80,24,09/01,215,,09/01,25,,,,,,,,0,0%,0%,0%,22-Dec,2-Jan,4-Jan,11,2,5,18
2-1,Morocco,EXPORT OPTIMUM (UK CC),44027,33331,33331-03,14 (4kg),240,3,55,,2-1a,,,15,5/1,,,16,80,24,09/01,240,,,,,,,,,,,0,16%,9%,25%,22-Dec,2-Jan,4-Jan,11,2,5,18
2-1,Morocco,EXPORT OPTIMUM (UK CC),44027,33331,33331-04,14 (4kg),240,3,55,,2-1a,,,15,5/1,,,16,80,24,11/01,240,,,,,,,,,,,0,1%,8%,9%,22-Dec,2-Jan,4-Jan,11,2,7,20
2-1,Morocco,EXPORT OPTIMUM (UK CC),44027,33331,33331-05,14 (4kg),240,3,55,,2-1a,,,15,5/1,,,16,80,24,11/01,131,,12/01,109,,,,,,,,0,16%,8%,23%,22-Dec,2-Jan,4-Jan,11,2,7,20
2-1,Morocco,EXPORT OPTIMUM (UK CC),44027,33331,33331-06,14 (4kg),240,3,55,,2-1a,,,15,5/1,,,16,80,24,12/01,240,,,,,,,,,,,0,0%,0%,0%,22-Dec,2-Jan,4-Jan,11,2,8,21
2-1,Morocco,EXPORT OPTIMUM (UK CC),44027,33331,33331-07,14 (4kg),240,3,55,,2-1a,,,15,5/1,,,16,80,24,12/01,240,,,,,,,,,,,0,0%,0%,0%,22-Dec,2-Jan,4-Jan,11,2,8,21
2-1,Morocco,EXPORT OPTIMUM (UK CC),44027,33331,33331-08,14 (4kg),240,3,55,,2-1a,,,15,5/1,,,16,80,24,09/01,240,,,,,,,,,,,0,0%,0%,0%,22-Dec,2-Jan,4-Jan,11,2,5,18
2-1,Morocco,EXPORT OPTIMUM (UK CC),44027,33331,33331-09,14 (4kg),240,3,55,,2-1a,,,15,5/1,,,16,80,24,09/01,240,,,,,,,,,,,0,18%,9%,26%,22-Dec,2-Jan,4-Jan,11,2,5,18
2-1,Morocco,MAROCAVO,12618,33333,33333-02,14 (10kg),100,3,55,,2-1a,,,18,5/1,,,17,80,24,11/01,66,,12/01,34,9,16/01,9,,,,,0,2%,1%,3%,22-Dec,2-Jan,4-Jan,11,2,7,20
2-1,Morocco,MAROCAVO,12618,33333,33333-03,14 (10kg),100,3,55,,2-1a,,,18,5/1,,,17,80,24,12/01,84,,17/01,12,,19/01,4,,,,,0,2%,0%,2%,22-Dec,2-Jan,4-Jan,11,2,8,21
2-1,Morocco,MAROCAVO,12618,33333,33333-04,16 (10kg),100,3,55,,2-1a,,,18,5/1,,,17,80,24,11/01,100,,,,,,,,,,,0,2%,1%,3%,22-Dec,2-Jan,4-Jan,11,2,7,20
2-1,Morocco,MAROCAVO,12618,33333,33333-05,16 (10kg),100,3,55,,2-1a,,,18,5/1,,,17,80,24,10/01,100,,,,,,,,,,,0,0%,0%,0%,22-Dec,2-Jan,4-Jan,11,2,6,19
2-1,Morocco,MAROCAVO,12618,33333,33333-06,16 (10kg),100,3,55,,2-1a,,,18,5/1,,,17,80,24,16/01,18,,18/01,82,,,,,,,,0,1%,5%,6%,22-Dec,2-Jan,4-Jan,11,2,12,25
2-1,Morocco,MAROCAVO,12618,33333,33333-07,16 (10kg),100,3,55,,2-1a,,,18,5/1,,,17,80,24,11/01,100,,,,,,,,,,,0,1%,2%,3%,22-Dec,2-Jan,4-Jan,11,2,7,20
2-1,Morocco,MAROCAVO,12618,33333,33333-08,18 (10kg),100,3,55,,2-1a,,,18,5/1,,,17,80,24,11/01,100,,,,,,,,,,,0,10%,3%,13%,22-Dec,2-Jan,4-Jan,11,2,7,20
2-1,Morocco,MAROCAVO,12618,33333,33333-13,20 (10kg),100,3,55,,2-1a,,,18,5/1,,,17,80,24,12/01,100,,,,,,,,,,,0,2%,4%,6%,22-Dec,2-Jan,4-Jan,11,2,8,21
2-1,Morocco,MAROCAVO,12618,33333,33333-14,20 (10kg),100,3,55,,2-1a,,,18,5/1,,,17,80,24,12/01,100,,,,,,,,,,,0,2%,4%,6%,22-Dec,2-Jan,4-Jan,11,2,8,21
2-1,Morocco,MAROCAVO,12618,33333,33333-16,22 (10kg),100,3,55,,2-1a,,,18,5/1,,,17,80,24,09/01,100,,,,,,,,,,,0,0%,4%,4%,22-Dec,2-Jan,4-Jan,11,2,5,18
2-1,Morocco,MAROCAVO,12618,33333,33333-19,24 (10kg),100,3,55,,2-1a,,,18,5/1,,,17,80,24,09/01,100,,,,,,,,,,,0,0%,0%,0%,22-Dec,2-Jan,4-Jan,11,2,5,18
2-1,Colombia,AGUACATES FLOREZ,2080,33303,12673,26 (10kg),120,3,69,,2-1b/15%lenticel - 15%sunburn,,,14,5/1,,,19,100,24,09/01,120,81,11/01,81,36,13/01,24,,16/01,12,,0,13%,6%,18%,8-Dec,26-Dec,6-Jan,18,11,3,32
2-1,Morocco,MOROCCANPURE,44935,33332,33332-25,20 (4kg),220,3,54,,2-1b,,,18,5/1,,,17,80,24,11/01,220,,,,,,,,,,,0,2%,2%,4%,23-Dec,30-Dec,6-Jan,7,7,5,19
2-1,Morocco,MOROCCANPURE,44935,33341,33341-14,20 (4kg),220,3,54,,2-1b,,,18,5/1,,,17,80,24,09/01,220,,,,,,,,,,,0,2%,5%,7%,23-Dec,30-Dec,6-Jan,7,7,3,17
2-1,Morocco,EXPORT OPTIMUM (UK CC),44027,33328,33328-6,16 (4kg),240,3,56,,2-1b,,,15,5/1,,,16,80,24,09/01,240,,,,,,,,,,,0,5%,2%,7%,21-Dec,2-Jan,6-Jan,12,4,3,19
2-1,Morocco,EXPORT OPTIMUM (UK CC),44027,33328,33328-8,16 (4kg),240,3,56,,2-1b,,,15,5/1,,,16,80,24,09/01,4,,12/01,236,,,,,,,,0,0%,0%,0%,21-Dec,2-Jan,6-Jan,12,4,3,19
2-1,Morocco,MAROCAVO,12618,33333,33333-09,18 (10kg),100,3,55,,2-1b,,,15,5/1,,,16,80,24,09/01,100,,,,,,,,,,,0,1%,3%,4%,22-Dec,2-Jan,6-Jan,11,4,3,18
2-1,Morocco,MAROCAVO,12618,33333,33333-10,18 (10kg),100,3,55,,2-1b,,,15,5/1,,,16,80,24,12/01,100,,,,,,,,,,,0,1%,2%,3%,22-Dec,2-Jan,6-Jan,11,4,6,21
2-1,Morocco,MAROCAVO,12618,33333,33333-15,20 (10kg),100,3,55,,2-1b,,,15,5/1,,,16,80,24,09/01,38,,12/01,62,,,,,,,,0,0%,5%,5%,22-Dec,2-Jan,6-Jan,11,4,3,18
2-1,Morocco,MAROCAVO,12618,33333,33333-17,22 (10kg),100,3,55,,2-1b,,,15,5/1,,,16,80,24,09/01,100,,,,,,,,,,,0,0%,4%,4%,22-Dec,2-Jan,6-Jan,11,4,3,18
2-1,Morocco,MAROCAVO,12618,33333,33333-18,22 (10kg),100,3,55,,2-1b,,,15,5/1,,,16,80,24,09/01,100,,,,,,,,,,,0,0%,3%,3%,22-Dec,2-Jan,6-Jan,11,4,3,18
2-1,Chile,SOFRUCO,51113,33325,451038908,22 (4kg),264,3,78,,2-1b. 10% colour (hard),,,14,6/1,,,19,100,24,11/01,264,,,,,,,,,,,0,0%,0%,0%,29-Nov,5-Jan,6-Jan,37,1,5,43
2-1,Chile,SOFRUCO,51113,33325,451038914,22 (4kg),264,3,78,,"2-1b 10% colour (hard), 30%lightvascular",,,14,6/1,,,19,100,24,11/01,264,,,,,,,,,,,0,0%,0%,0%,29-Nov,5-Jan,6-Jan,37,1,5,43
2-1,Chile,SOFRUCO,51113,33325,451038922,22 (4kg),264,3,77,,2-1b 10% colour (hard),,,14,6/1,,,19,100,24,11/01,264,,,,,,,,,,,0,2%,2%,4%,30-Nov,5-Jan,6-Jan,36,1,5,42
2-1,Colombia,AGUACATES FLOREZ,2080,33313,12756,24 (4kg),264,3,68,,2-1b 15% lenticel,,,14,5/1,,,19,100,24,09/01,124,,12/01,140,,,,,,,,0,2%,0%,2%,9-Dec,5-Jan,6-Jan,27,1,3,31
2-1,Colombia,AGUACATES FLOREZ,2080,33313,12765,24 (4kg),264,3,65,,2-1b 15% lenticel,,,14,5/1,,,19,100,24,11/01,264,222,12/01,222,96,13/01,58,,16/01,38,,0,4%,3%,7%,12-Dec,5-Jan,6-Jan,24,1,5,30
2-1,Colombia,AGUACATES FLOREZ,2080,33313,12782,24 (4kg),264,3,64,,2-1b 15% lenticel,,,14,5/1,,,19,100,24,10/01,264,186,12/01,186,,,,,,,,0,3%,0%,3%,13-Dec,5-Jan,6-Jan,23,1,4,28
2-1,Colombia,AGUACATES FLOREZ,2080,33313,12786,24 (4kg),264,3,64,,2-1b 15% lenticel,,,14,5/1,,,19,100,24,11/01,264,,,,,,,,,,,0,0%,0%,0%,13-Dec,5-Jan,6-Jan,23,1,5,29
2-1,Chile,SOFRUCO,51113,33325,451038950,24 (10kg),120,3,76,,2-1b 10% colour (hard),,,14,6/1,,,19,100,24,12/01,23,,13/01,97,,,,,,,,0,0%,0%,0%,1-Dec,5-Jan,6-Jan,35,1,6,42
2-1,Morocco,MOROCCANPURE,44935,33341,33341-02,18 (4kg),220,3,54,,,,,,,,,,,,09/01,220,,,,,,,,,,,0,1%,10%,11%,23-Dec,30-Dec,6-Jan,7,7,3,17
2-1,Morocco,MOROCCANPURE,44935,33341,33341-17,20 (4kg),220,3,54,,,,,,,,,,,,09/01,220,,,,,,,,,,,0,5%,5%,9%,23-Dec,30-Dec,6-Jan,7,7,3,17
2-1,Morocco,EXPORT OPTIMUM (UK CC),44027,33328,33328-12,16 (4kg),240,3,56,,,,,,,,,,,,11/01,240,,,,,,,,,,,0,5%,13%,18%,21-Dec,2-Jan,6-Jan,12,4,5,21
2-1,Morocco,MOROCCANPURE,44935,33341,33341-24,20 (4kg),220,3,54,,,,,16,5/1,,,17,80,24,09/01,220,,,,,,,,,,,0,0%,0%,0%,23-Dec,30-Dec,6-Jan,7,7,3,17
2-1,Morocco,EXPORT OPTIMUM (UK CC),44027,33328,33328-5,16 (4kg),240,3,56,,,,,16,5/1,,,17,80,24,11/01,240,28,12/01,28,,,,,,,,0,5%,15%,19%,21-Dec,2-Jan,6-Jan,12,4,5,21
2-1,Morocco,HALLS_FRANCE,44027,33360,274445,Bio 24 (4kg),220,3,44972,,,,,16,5/1,,,17,80,24,09/01,151,,10/01,69,23,11/01,23,,,,,0,0%,1%,1%,,6-Jan,6-Jan,44932,0,3,44935
2-2,Colombia,AGUACATES FLOREZ,2080,33303,12675,26 (10kg),120,3,69,,2-2a 15%lenticel - 15%sunburn,,,17,9/1,,,19,100,24,12/01,102,,16/01,18,,,,,,,,0,18%,0%,18%,8-Dec,26-Dec,9-Jan,18,14,3,35
2-2,Morocco,MOROCCANPURE,44935,33341,33341-11,18 (4kg),220,3,54,,2-2a,,,21,9/1,,,18,80,24,13/01,220,,,,,,,,,,,0,4%,5%,9%,23-Dec,30-Dec,9-Jan,7,10,4,21
2-2,Morocco,MOROCCANPURE,44935,33341,33341-19,18 (4kg),220,3,54,,2-2a,,,21,9/1,,,18,80,24,13/01,220,,,,,,,,,,,0,4%,5%,10%,23-Dec,30-Dec,9-Jan,7,10,4,21
2-2,Morocco,MOROCCANPURE,44935,33341,33341-21,18 (4kg),220,3,54,,2-2a,,,21,9/1,,,18,80,24,13/01,220,,,,,,,,,,,0,4%,5%,10%,23-Dec,30-Dec,9-Jan,7,10,4,21
2-2,Morocco,MOROCCANPURE,44935,33341,33341-23,20 (4kg),220,3,54,,2-2a,,,21,9/1,,,18,80,24,11/01,220,,,,,,,,,,,0,3%,1%,4%,23-Dec,30-Dec,9-Jan,7,10,2,19
2-2,Morocco,MOROCCANPURE,44935,33341,33341-13,18 (4kg),220,3,54,,2-2a,,,21,9/1,,,18,80,24,13/01,220,,,,,,,,,,,0,4%,5%,9%,23-Dec,30-Dec,9-Jan,7,10,4,21
2-2,Morocco,EXPORT OPTIMUM (UK CC),44027,33328,33328-9,16 (4kg),240,3,56,,2-2a,,,21,9/1,,,18,80,24,11/01,240,80,13/01,80,,,,,,,,0,5%,2%,7%,21-Dec,2-Jan,9-Jan,12,7,2,21
2-2,Morocco,MAROCAVO,12618,33333,33333-11,18 (10kg),100,3,55,,2-2a,,,21,9/1,,,18,80,24,12/01,100,,,,,,,,,,,0,0%,2%,2%,22-Dec,2-Jan,9-Jan,11,7,3,21
2-2,Morocco,MAROCAVO,12618,33333,33333-12,18 (10kg),100,3,55,,2-2a,,,21,9/1,,,18,80,24,12/01,100,,,,,,,,,,,0,0%,1%,1%,22-Dec,2-Jan,9-Jan,11,7,3,21
2-2,Colombia,AGUACATES FLOREZ,2080,33313,12752,22 (4kg),264,3,68,,2-2a 15% lenticel,,,17,9/1,,,19,100,24,13/01,264,,,,,,,,,,,0,0%,0%,0%,9-Dec,5-Jan,9-Jan,27,4,4,35
2-2,Colombia,AGUACATES FLOREZ,2080,33313,12764,22 (4kg),264,3,65,,2-2a 15% lenticel,,,17,9/1,,,19,100,24,13/01,264,,,,,,,,,,,0,1%,2%,3%,12-Dec,5-Jan,9-Jan,24,4,4,32
2-2,Colombia,AGUACATES FLOREZ,2080,33313,12754,30 (10kg),120,3,68,,"2-2a 15% lenticel, 30%underweight%30%overweight",,,17,9/1,,,19,100,24,13/01,120,,,,,,,,,,,0,0%,0%,0%,9-Dec,5-Jan,9-Jan,27,4,4,35
2-2,Colombia,AGUACATES FLOREZ,2080,33313,12760,30 (10kg),120,3,65,,"2-2a 15% lenticel, 30%underweight%30%overweight",,,17,9/1,,,19,100,24,13/01,76,,16/01,44,,,,,,,,0,0%,9%,9%,12-Dec,5-Jan,9-Jan,24,4,4,32
2-2,Colombia,AGUACATES FLOREZ,2080,33313,12753,28 (10kg),120,3,68,,"2-2a 15% lenticel, 40% piece underweight",,,17,9/1,,,19,100,24,16/01,93,,18/01,26,,,1,,,,,0,4%,5%,9%,9-Dec,5-Jan,9-Jan,27,4,7,38
2-2,Chile,SOFRUCO,51113,33325,451038924,20 (4kg),264,3,78,,2-2a 10% colour (hard),,,17,9/1,,,19,100,24,13/01,264,,,,,,,,,,,0,0%,1%,2%,29-Nov,5-Jan,9-Jan,37,4,4,45
2-2,Chile,SOFRUCO,51113,33325,451038927,22 (4kg),264,3,77,,2-2a 10% colour (hard),,,17,9/1,,,19,100,24,12/01,264,,,,,,,,,,,0,0%,0%,1%,30-Nov,5-Jan,9-Jan,36,4,3,43
2-2,Chile,SOFRUCO,51113,33325,451038933,22 (4kg),264,3,77,,2-2a 10% colour (hard),,,17,9/1,,,19,100,24,13/01,264,,,,,,,,,,,0,2%,2%,3%,30-Nov,5-Jan,9-Jan,36,4,4,44
2-2,Chile,SOFRUCO,51113,33325,451038937,22 (4kg),264,3,77,,2-2a 10% colour (hard),,,17,9/1,,,19,100,24,13/01,264,,,,,,,,,,,0,2%,2%,3%,30-Nov,5-Jan,9-Jan,36,4,4,44
2-2,Chile,SOFRUCO,51113,33325,451038942,22 (4kg),264,3,76,,2-2a 10% colour (hard),,,17,9/1,,,19,100,24,13/01,264,,,,,,,,,,,0,2%,2%,3%,1-Dec,5-Jan,9-Jan,35,4,4,43
2-2,Chile,SOFRUCO,51113,33325,451038949,20 (4kg),264,3,77,,2-2a 10% colour (hard),,,17,9/1,,,19,100,24,13/01,264,,,,,,,,,,,0,0%,1%,1%,30-Nov,5-Jan,9-Jan,36,4,4,44
2-2,Morocco,HALLS_FRANCE,44027,33360,274444,Bio 24 (4kg),220,3,51,,2-2a,,,21,9/1,,,18,80,24,11/01,42,,13/01,172,,16/01,6,,,,,0,0%,5%,5%,26-Dec,6-Jan,9-Jan,11,3,2,16
2-2,Morocco,MOROCCANPURE,44935,33332,33332-04,16 (4kg),220,3,54,,2-2b,,,21,9/1,,,18,80,24,12/01,220,,,,,,,,,,,0,5%,2%,6%,23-Dec,30-Dec,9-Jan,7,10,3,20
2-2,Morocco,MAROCAVO,12618,33333,33333-20,26 (10kg),100,3,55,,2-2b,,,21,9/1,,,18,80,24,13/01,75,,16/01,21,,17/01,4,,,,,0,0%,0%,0%,22-Dec,2-Jan,9-Jan,11,7,4,22
2-2,Chile,SOFRUCO,51113,33325,451038913,18 (4kg),264,3,78,,2-2b 10% colour (hard),,,17,9/1,,,19,100,24,13/01,264,,,,,,,,,,,0,1%,0%,2%,29-Nov,5-Jan,9-Jan,37,4,4,45
2-2,Morocco,MAROCAVO,12618,33346,33346-03,14 (10kg),90,3,45,,2-2c,,,21,9/1,,,18,80,24,12/02,90,,,,,,,,,,,0,2%,0%,2%,1-Jan,9-Jan,9-Jan,8,0,34,42
2-2,Morocco,MAROCAVO,12618,33346,33346-04,14 (10kg),90,3,45,,2-2c,,,21,9/1,,,18,80,24,12/01,59,,19/01,31,,,,,,,,0,3%,13%,17%,1-Jan,9-Jan,9-Jan,8,0,3,11
2-2,Morocco,MAROCAVO,12618,33346,33346-05,14 (10kg),90,3,45,,2-2c,,,21,9/1,,,18,80,24,13/01,90,,,,,,,,,,,0,2%,0%,2%,1-Jan,9-Jan,9-Jan,8,0,4,12
2-2,Morocco,MAROCAVO,12618,33346,33346-06,14 (10kg),90,3,45,,2-2c,,,21,9/1,,,18,80,24,13/01,90,,,,,,,,,,,0,3%,0%,3%,1-Jan,9-Jan,9-Jan,8,0,4,12
2-2,Morocco,MAROCAVO,12618,33346,33346-20,20 (10kg),90,3,45,,2-2c,,,21,9/1,,,18,80,24,13/01,90,,,,,,,,,,,0,2%,2%,4%,1-Jan,9-Jan,9-Jan,8,0,4,12
2-2,Morocco,MAROCAVO,12618,33346,33346-21,20 (10kg),90,3,45,,2-2c,,,21,9/1,,,18,80,24,13/01,90,,,,,,,,,,,0,2%,2%,4%,1-Jan,9-Jan,9-Jan,8,0,4,12
2-2,Morocco,MAROCAVO,12618,33346,33346-26,24 (10kg),90,3,45,,2-2c,,,17,9/1,,,18,80,24,13/01,41,,17/01,8,,17/01,41,,,,,0,1%,1%,2%,1-Jan,9-Jan,9-Jan,8,0,4,12
2-2,Morocco,MAROCAVO,12618,33359,33359-25,24 (4kg),220,3,43,,2-2c,,,21,9/1,,,18,80,24,13/01,220,,,,,,,,,,,0,0%,1%,1%,3-Jan,9-Jan,9-Jan,6,0,4,10
2-2,Morocco,MOROCCANPURE,44935,33332,33332-06,16 (4kg),220,3,54,,2-2d,,,21,9/1,,,18,80,24,12/01,220,,,,,,,,,,,0,5%,2%,7%,23-Dec,30-Dec,9-Jan,7,10,3,20
2-2,Morocco,MAROCAVO,12618,33346,33346-02,14 (10kg),90,3,45,,2-2d,,,21,9/1,,,18,80,24,12/01,81,,13/01,9,,,,,,,,0,3%,0%,3%,1-Jan,9-Jan,9-Jan,8,0,3,11
2-2,Morocco,MAROCAVO,12618,33346,33346-15,18 (10kg),90,3,45,,2-2e,,,21,9/1,,,18,80,24,13/01,90,,,,,,,,,,,0,0%,0%,0%,1-Jan,9-Jan,9-Jan,8,0,4,12
2-2,Morocco,MOROCCANPURE,44935,33332,33332-08,16 (4kg),220,3,54,,2-2f,,,21,9/1,,,18,80,24,13/01,220,,,,,,,,,,,0,4%,2%,5%,23-Dec,30-Dec,9-Jan,7,10,4,21
2-1,Morocco,MAROCAVO,12618,33346,33346-07,14 (10kg),90,3,45,,2-X,,,,,,,,,,10/01,38,,11/01,52,,,,,,,,0,0%,3%,3%,1-Jan,9-Jan,10-Jan,8,1,0,9
2-1,Morocco,MAROCAVO,12618,33359,33359-02,14 (4kg),220,3,43,,2-X,,,,,,,,,,10/01,220,,,,,,,,,,,0,0%,0%,0%,3-Jan,9-Jan,10-Jan,6,1,0,7
2-1,Morocco,MAROCAVO,12618,33359,33359-03,14 (4kg),220,3,43,,2-X,,,,,,,,,,10/01,220,,,,,,,,,,,0,0%,0%,0%,3-Jan,9-Jan,10-Jan,6,1,0,7
2-1,Morocco,MAROCAVO,12618,33362,33362-01,14 (4kg),220,3,42,,2-X,,,,,,,,,,11/01,88,,12/01,132,,,,,,,,0,1%,0%,2%,4-Jan,9-Jan,10-Jan,5,1,1,7
2-1,Morocco,MAROCAVO,12618,33362,33362-02,14 (4kg),220,3,42,,2-X,,,,,,,,,,11/01,220,,,,,,,,,,,0,3%,0%,3%,4-Jan,9-Jan,10-Jan,5,1,1,7
2-1,Morocco,MAROCAVO,12618,33362,33362-03,14 (4kg),220,3,42,,2-X,,,,,,,,,,11/01,220,,,,,,,,,,,0,3%,0%,3%,4-Jan,9-Jan,10-Jan,5,1,1,7
3-1,Morocco,MAROCAVO,12618,33333,33333-01,12 (10kg),100,3,55,,,MAXIMA,"3-1a 2% stage 5, 30 % stage 3/4 30% stage 2 rest HARD",,,5,,5,,,16/01,100,,,,,,,,,,,0,0%,0%,0%,22-Dec,2-Jan,11-Jan,11,9,5,25
3-1,Morocco,EXPORT OPTIMUM (UK CC),44027,33331,33331-16,16 (4kg),240,3,55,,,,"20% stage 5, 40 % stage 3/4 40% stage 1/2",,,5,,5,,,19/01,240,,,,,,,,,,,0,15%,4%,19%,22-Dec,2-Jan,11-Jan,11,9,8,28
3-1,Morocco,EXPORT OPTIMUM (UK CC),44027,33331,33331-17,16 (4kg),240,3,55,,,,"20% stage 5, 40 % stage 3/4 40% stage 1/2",,,5,,5,,,18/01,240,,,,,,,,,,,0,8%,4%,12%,22-Dec,2-Jan,11-Jan,11,9,7,27
3-1,Morocco,EXPORT OPTIMUM (UK CC),44027,33331,33331-18,16 (4kg),240,3,55,,,,"20% stage 5, 40 % stage 3/4 40% stage 1/2",,,5,,5,,,19/01,240,,,,,,,,,,,0,15%,5%,20%,22-Dec,5-Jan,11-Jan,14,6,8,28
3-1,Morocco,EXPORT OPTIMUM (UK CC),44027,33331,33331-19,16 (4kg),240,3,55,,,,"20% stage 5, 40 % stage 3/4 40% stage 1/2",,,5,,5,,,16/01,240,,,,,,,,,,,0,13%,8%,20%,22-Dec,5-Jan,11-Jan,14,6,5,25
3-1,Chile,SOFRUCO,51113,33325,451038917,18 (4kg),264,3,77,,3-1a 10% colour (hard),,,14,11/1,18,12,18,80,24,16/01,264,,,,,,,,,,,0,0%,0%,0%,30-Nov,5-Jan,11-Jan,36,6,5,47
3-1,Chile,SOFRUCO,51113,33325,451038938,18 (4kg),264,3,77,,3-1a 10% colour (hard),,,14,11/1,18,12,18,80,24,18/01,264,,,,,,,,,,,0,1%,4%,5%,30-Nov,5-Jan,11-Jan,36,6,7,49
3-1,Chile,SOFRUCO,51113,33325,451038947,18 (4kg),264,3,76,,3-1a 10% colour (hard),,,14,11/1,18,12,18,80,24,18/01,264,,,,,,,,,,,0,1%,4%,5%,1-Dec,5-Jan,11-Jan,35,6,7,48
3-1,Chile,SOFRUCO,51113,33325,451038960,18 (4kg),264,3,76,,3-1a 10% colour (hard),,,14,11/1,18,12,18,80,24,16/01,264,,,,,,,,,,,0,0%,1%,2%,1-Dec,5-Jan,11-Jan,35,6,5,46
3-1,Chile,SOFRUCO,51113,33325,451038944,22 (4kg),264,3,76,,3-1a 10% colour (hard),,,14,11/1,18,12,18,80,24,16/01,264,,,,,,,,,,,0,0%,3%,3%,1-Dec,5-Jan,11-Jan,35,6,5,46
3-1,Chile,SOFRUCO,51113,33325,451038951,22 (4kg),264,3,76,,3-1a 10% colour (hard),,,14,11/1,18,12,18,80,24,16/01,264,,,,,,,,,,,0,0%,3%,3%,1-Dec,5-Jan,11-Jan,35,6,5,46
3-1,Chile,SOFRUCO,51113,33325,451038955,22 (4kg),264,3,76,,3-1a 10% colour (hard),,,14,11/1,18,12,18,80,24,16/01,264,,,,,,,,,,,0,1%,3%,4%,1-Dec,5-Jan,11-Jan,35,6,5,46
3-1,Chile,SOFRUCO,51113,33325,451038964,22 (10kg),120,3,75,,3-1a 10% colour (hard),,,14,11/1,18,12,18,80,24,16/01,120,,,,,,,,,,,0,0%,0%,0%,2-Dec,5-Jan,11-Jan,34,6,5,45
3-1,Colombia,AGUACATES FLOREZ,2080,33313,12759,26 (10kg),120,3,65,,"3-1a 15% lenticel, 30% piece underweight",,,14,11/1,18,12,18,80,24,16/01,120,,,,,,,,,,,0,0%,4%,4%,12-Dec,9-Jan,11-Jan,28,2,5,35
3-1,Colombia,AGUACATES FLOREZ,2080,33313,12761,28 (10kg),120,3,65,,"3-1a 15% lenticel, 40% piece underweight",,,14,11/1,18,12,18,80,24,18/01,120,18,20/01,18,,,,,,,,0,16%,6%,22%,12-Dec,9-Jan,11-Jan,28,2,7,37
3-1,Morocco,MAROCAVO,12618,33346,33346-01,12 (10kg),90,3,45,,3-1a,MAXIMA,,17,12/1,16,16,17,80,24,16/01,28,,17/01,62,,,,,,,,0,2%,0%,2%,1-Jan,9-Jan,11-Jan,8,2,5,15
3-1,Morocco,MAROCAVO,12618,33359,33359-01,12 (4kg),220,3,43,,3-1a,MAXIMA,,17,12/1,16,16,17,80,24,17/01,220,,,,,,,,,,,0,10%,0%,10%,3-Jan,9-Jan,11-Jan,6,2,6,14
3-1,Morocco,MAROCAVO,12618,33362,33362-04,14 (4kg),220,3,42,,3-1a,,,17,12/1,16,16,17,80,24,17/01,220,,,,,,,,,,,0,3%,5%,8%,4-Jan,9-Jan,11-Jan,5,2,6,13
3-1,Morocco,MAROCAVO,12618,33362,33362-05,14 (4kg),220,3,42,,3-1a,,,17,12/1,16,16,17,80,24,18/01,220,,,,,,,,,,,0,0%,0%,0%,4-Jan,9-Jan,11-Jan,5,2,7,14
3-1,Morocco,MAROCAVO,12618,33362,33362-15,18 (4kg),220,3,42,,3-1a,,,17,12/1,16,16,17,80,24,17/01,220,,,,,,,,,,,0,3%,1%,4%,4-Jan,9-Jan,11-Jan,5,2,6,13
3-1,Morocco,MAROCAVO,12618,33362,33362-16,18 (4kg),220,3,42,,3-1a,,,17,12/1,16,16,17,80,24,17/01,220,,,,,,,,,,,0,3%,1%,4%,4-Jan,9-Jan,11-Jan,5,2,6,13
3-1,Morocco,MAROCAVO,12618,33362,33362-17,18 (4kg),220,3,42,,3-1a,,,17,12/1,16,16,17,80,24,17/01,219,,17/01,1,,,,,,,,0,2%,1%,4%,4-Jan,9-Jan,11-Jan,5,2,6,13
3-1,Morocco,MAROCAVO,12618,33362,33362-18,18 (4kg),220,3,42,,3-1a,,,17,12/1,16,16,17,80,24,17/01,220,,,,,,,,,,,0,3%,1%,4%,4-Jan,9-Jan,11-Jan,5,2,6,13
3-1,Morocco,MAROCAVO,12618,33346,33346-22,20 (10kg),90,3,45,,3-1a,,,17,12/1,16,16,17,80,24,16/01,90,,,,,,,,,,,0,2%,0%,2%,1-Jan,9-Jan,11-Jan,8,2,5,15
3-1,Morocco,MAROCAVO,12618,33346,33346-23,20 (10kg),90,3,45,,3-1a,,,17,12/1,16,16,17,80,24,16/01,90,,,,,,,,,,,0,1%,3%,4%,1-Jan,9-Jan,11-Jan,8,2,5,15
3-1,Morocco,MAROCAVO,12618,33359,33359-18,20 (4kg),220,3,43,,3-1a,,,17,12/1,16,16,17,80,24,18/01,220,,,,,,,,,,,0,1%,1%,2%,3-Jan,9-Jan,11-Jan,6,2,7,15
3-1,Morocco,MAROCAVO,12618,33359,33359-19,20 (4kg),220,3,43,,3-1a,,,17,12/1,16,16,17,80,24,18/01,220,,,,,,,,,,,0,1%,1%,2%,3-Jan,9-Jan,11-Jan,6,2,7,15
3-1,Morocco,MAROCAVO,12618,33359,33359-20,20 (4kg),220,3,43,,3-1a,,,17,12/1,16,16,17,80,24,20/01,220,,,,,,,,,,,0,0%,0%,0%,3-Jan,9-Jan,11-Jan,6,2,9,17
3-1,Morocco,MAROCAVO,12618,33359,33359-21,20 (4kg),220,3,43,,3-1a,,,17,12/1,16,16,17,80,24,16/01,220,,,,,,,,,,,0,0%,0%,0%,3-Jan,9-Jan,11-Jan,6,2,5,13
3-1,Morocco,MAROCAVO,12618,33362,33362-19,20 (4kg),220,3,42,,3-1a,,,17,12/1,16,16,17,80,24,16/01,220,,,,,,,,,,,0,3%,1%,4%,4-Jan,9-Jan,11-Jan,5,2,5,12
3-1,Morocco,MAROCAVO,12618,33362,33362-20,20 (4kg),220,3,42,,3-1a,,,17,12/1,16,16,17,80,24,16/01,220,,,,,,,,,,,0,3%,1%,4%,4-Jan,9-Jan,11-Jan,5,2,5,12
3-1,Morocco,MAROCAVO,12618,33362,33362-21,20 (4kg),220,3,42,,3-1a,,,17,12/1,16,16,17,80,24,16/01,220,,,,,,,,,,,0,3%,1%,4%,4-Jan,9-Jan,11-Jan,5,2,5,12
3-1,Morocco,MAROCAVO,12618,33362,33362-22,20 (4kg),220,3,42,,3-1a,,,17,12/1,16,16,17,80,24,16/01,220,,,,,,,,,,,0,2%,1%,3%,4-Jan,9-Jan,11-Jan,5,2,5,12
3-1,Morocco,MAROCAVO,12618,33346,33346-24,22 (10kg),90,3,45,,3-1a,,,17,12/1,16,16,17,80,24,16/01,90,19,18/01,19,,,,,,,,0,0%,3%,3%,1-Jan,9-Jan,11-Jan,8,2,5,15
3-1,Morocco,MAROCAVO,12618,33346,33346-25,22 (10kg),90,3,45,,3-1a,,,17,12/1,16,16,17,80,24,16/01,90,,,,,,,,,,,0,0%,3%,3%,1-Jan,10-Jan,11-Jan,9,1,5,15
3-1,Morocco,MAROCAVO,12618,33362,33362-26,24 (4kg),220,3,42,,3-1a,,,17,12/1,16,16,17,80,24,17/01,214,,23/01,5,,,1,,,,,0,0%,0%,0%,4-Jan,10-Jan,11-Jan,6,1,6,13
3-1,Chile,SUBSOLE,38576,33318,2685862284,14 (10kg),120,3,65,,3-1a,,,20,11/1,16,36,16,80,24,20/01,120,,,,,,,,,,,0,1%,0%,1%,12-Dec,10-Jan,11-Jan,29,1,9,39
3-1,Chile,SUBSOLE,66531,33318,2685862250,20 (10kg),120,3,67,,3-1a. 5% colour (13kg),,,14,11/1,18,12,18,80,24,19/01,120,,,,,,,,,,,0,2%,0%,2%,10-Dec,,11-Jan,-44905,44937,8,40
3-1,Chile,SUBSOLE,38576,33318,2685862294,20 (10kg),120,3,64,,3-1a,,,14,11/1,18,12,18,80,24,17/01,120,,,,,,,,,,,0,3%,0%,3%,13-Dec,,11-Jan,-44908,44937,6,35
3-1,Morocco,EXPORT OPTIMUM (UK CC),44027,33331,33331-10,16 (4kg),240,3,55,,3-1b,,"30% stage 4, 50% stage 2/3 20% hard",,,5,,5,,,17/01,240,,,,,,,,,,,0,2%,3%,5%,22-Dec,2-Jan,13-Jan,11,11,4,26
3-1,Morocco,EXPORT OPTIMUM (UK CC),44027,33331,33331-11,16 (4kg),240,3,55,,3-1b,,"30% stage 4, 50% stage 2/3 20% hard",,,5,,5,,,17/01,240,,,,,,,,,,,0,3%,3%,5%,22-Dec,2-Jan,13-Jan,11,11,4,26
3-1,Morocco,EXPORT OPTIMUM (UK CC),44027,33331,33331-12,16 (4kg),240,3,55,,3-1b,,"30% stage 4, 50% stage 2/3 20% hard",,,5,,5,,,17/01,240,28,17/01,28,,,,,,,,0,2%,3%,5%,22-Dec,2-Jan,13-Jan,11,11,4,26
3-1,Colombia,AGUACATES FLOREZ,2080,33313,12762,26 (10kg),120,3,65,,"3-1b 15% lenticel, 30% piece underweight",,,14,13/1,18,12,18,80,24,17/01,49,,18/01,24,,20/01,47,,,,,0,4%,4%,8%,12-Dec,5-Jan,13-Jan,24,8,4,36
3-1,Colombia,AGUACATES FLOREZ,2080,33313,12787,26 (10kg),120,3,64,,"3-1b 15% lenticel, 30% piece underweight",,,14,13/1,18,12,18,80,24,16/01,120,86,17/01,86,,,,,,,,0,14%,3%,18%,13-Dec,5-Jan,13-Jan,23,8,3,34
3-1,Colombia,AGUACATES FLOREZ,2080,33313,12788,26 (10kg),120,3,64,,"3-1b 15% lenticel, 30% piece underweight",,,14,13/1,18,12,18,80,24,20/01,120,,,,,,,,,,,0,0%,17%,17%,13-Dec,5-Jan,13-Jan,23,8,7,38
3-1,Morocco,MAROCAVO,12618,33359,33359-22,22 (4kg),220,3,43,,3-1b,,,15,13/1,16.5,12,16.5,80,24,18/01,220,,,,,,,,,,,0,0%,2%,2%,3-Jan,9-Jan,13-Jan,6,4,5,15
3-1,Morocco,MAROCAVO,12618,33359,33359-23,22 (4kg),220,3,43,,3-1b,,,15,13/1,16.5,12,16.5,80,24,18/01,220,,,,,,,,,,,0,1%,0%,1%,3-Jan,9-Jan,13-Jan,6,4,5,15
3-1,Morocco,MAROCAVO,12618,33359,33359-24,22 (4kg),220,3,43,,3-1b,,,15,13/1,16.5,12,16.5,80,24,18/01,220,,,,,,,,,,,0,0%,2%,2%,3-Jan,9-Jan,13-Jan,6,4,5,15
3-1,Morocco,MAROCAVO,12618,33359,33359-26,26 (10kg),90,3,43,,3-1b,,,15,13/1,16.5,12,16.5,80,24,18/01,78,,20/01,7,,23/01,5,,,,,0,0%,0%,0%,3-Jan,9-Jan,13-Jan,6,4,5,15
3-1,Morocco,MAROCAVO,12618,33362,33362-23,22 (4kg),220,3,42,,3-1b,,,15,13/1,16.5,12,16.5,80,24,23/01,220,,,,,,,,,,,0,0%,0%,0%,4-Jan,9-Jan,13-Jan,5,4,10,19
3-1,Morocco,MAROCAVO,12618,33362,33362-24,22 (4kg),220,3,42,,3-1b,,,15,13/1,16.5,12,16.5,80,24,23/01,220,,,,,,,,,,,0,0%,3%,3%,4-Jan,9-Jan,13-Jan,5,4,10,19
3-1,Morocco,MAROCAVO,12618,33362,33362-25,22 (4kg),220,3,42,,3-1b,,,15,13/1,16.5,12,16.5,80,24,23/01,220,,,,,,,,,,,0,1%,2%,4%,4-Jan,9-Jan,13-Jan,5,4,10,19
3-1,Chile,SUBSOLE,38576,33318,2685862147,14 (10kg),120,3,67,,3-1b. 5% colour (13kg),,,20,13/1,16,12,16,80,24,19/01,120,,,,,,,,,,,0,3%,0%,3%,10-Dec,10-Jan,13-Jan,31,3,6,40
3-1,Chile,SUBSOLE,38576,33318,2685862229,20 (10kg),120,3,67,,3-1b,,,14,13/1,18,12,18,80,24,18/01,5,,19/01,115,,,,,,,,0,2%,0%,2%,10-Dec,10-Jan,13-Jan,31,3,5,39
3-1,Chile,SUBSOLE,66531,33318,2685862236,20 (10kg),120,3,67,,3-1b,,,14,13/1,18,12,18,80,24,18/01,120,,,,,,,,,,,0,2%,0%,2%,10-Dec,10-Jan,13-Jan,31,3,5,39
3-1,Chile,SUBSOLE,66531,33318,2685862243,20 (10kg),120,3,67,,3-1b,,,14,13/1,18,12,18,80,24,17/01,120,,,,,,,,,,,0,3%,0%,3%,10-Dec,10-Jan,13-Jan,31,3,4,38
3-1,Chile,SUBSOLE,66531,33318,2685862252,14 (10kg),120,3,67,,3-1b. 5% colour (13kg),,,20,13/1,16,12,16,80,24,19/01,120,,,,,,,,,,,0,2%,0%,2%,10-Dec,10-Jan,13-Jan,31,3,6,40
3-1,Chile,SUBSOLE,38576,33318,2685862267,18 (10kg),120,3,65,,3-1b,,,14,13/1,18,12,18,80,24,19/01,120,,,,,,,,,,,0,1%,0%,1%,12-Dec,10-Jan,13-Jan,29,3,6,38
3-1,Chile,SUBSOLE,38576,33318,2685862269,18 (10kg),120,3,65,,3-1b,,,14,13/1,18,12,18,80,24,16/01,28,,19/01,92,,,,,,,,0,1%,0%,1%,12-Dec,10-Jan,13-Jan,29,3,3,35
3-1,Chile,SUBSOLE,38576,33318,2685862289,20 (10kg),120,3,64,,3-1b,,,14,13/1,18,12,18,80,24,17/01,120,,,,,,,,,,,0,2%,0%,2%,13-Dec,10-Jan,13-Jan,28,3,4,35
3-1,Colombia,BRATZ-S,67841,33394,33394-01,24 (10kg),120,3,44972,,3-1b,,,20,13/1,16,12,16,80,24,17/01,120,33,20/01,33,,,,,,,,0,17%,5%,22%,,11-Jan,13-Jan,44937,2,4,44943
3-1,Colombia,BRATZ-S,67841,33394,33394-02,24 (10kg),120,3,44972,,3-1b,,,20,13/1,16,12,16,80,24,16/01,52,,17/01,68,,,,,,,,0,0%,9%,9%,,11-Jan,13-Jan,44937,2,3,44942
3-1,Colombia,AGUACATES FLOREZ,2080,33337,12423,28-32 (11.3kg),96,3,80,,3-1b. 15% lenticel,,,15,13/1,16.5,12,16.5,80,24,16/01,26,,18/01,17,,19/01,53,,,,,0,0%,2%,2%,27-Nov,13-Jan,13-Jan,47,0,3,50
3-1,Colombia,AGUACATES FLOREZ,2080,33337,12424,28-32 (11.3kg),96,3,80,,3-1b 15% lenticel,,,15,13/1,16.5,12,16.5,80,24,16/01,96,,,,,,,,,,,0,0%,8%,8%,27-Nov,13-Jan,13-Jan,47,0,3,50
3-1,Colombia,AGUACATES FLOREZ,2080,33337,12430,28-32 (11.3kg),96,3,80,,3-1b 15% lenticel,,,15,13/1,16.5,12,16.5,80,24,16/01,32,,18/01,64,,,,,,,,0,0%,10%,10%,27-Nov,13-Jan,13-Jan,47,0,3,50
3-1,Colombia,AGUACATES FLOREZ,2080,33337,12696,24-28 (11.3kg),96,3,69,,"3-1b. P:10-13kg, 15% lenticel",DO NOT USE FOR FLOWPACK,,15,13/1,16.5,12,16.5,80,24,16/01,96,46,17/01,46,,,,,,,,0,0%,8%,8%,8-Dec,13-Jan,13-Jan,36,0,3,39
3-1,Colombia,AGUACATES FLOREZ,2080,33337,12697,24-28 (11.3kg),96,3,69,,"3-1b, 15% lenticel",DO NOT USE FOR FLOWPACK,,15,13/1,16.5,12,16.5,80,24,16/01,96,,,,,,,,,,,0,0%,8%,8%,8-Dec,13-Jan,13-Jan,36,0,3,39
3-1,Colombia,AGUACATES FLOREZ,2080,33337,12700,24-28 (11.3kg),96,3,69,,"3-1b, 15% lenticel",DO NOT USE FOR FLOWPACK,,15,13/1,16.5,12,16.5,80,24,16/01,96,39,17/01,39,,,,,,,,0,0%,7%,7%,8-Dec,13-Jan,13-Jan,36,0,3,39
3-1,Colombia,AGUACATES FLOREZ,2080,33337,12707,24-28 (11.3kg),96,3,69,,"3-1b, 15% lenticel",DO NOT USE FOR FLOWPACK,,15,13/1,16.5,12,16.5,80,24,17/01,96,29,20/01,29,,,,,,,,0,7%,10%,18%,8-Dec,13-Jan,13-Jan,36,0,4,40
3-1,Colombia,AGUACATES FLOREZ,2080,33337,12718,24-28 (11.3kg),96,3,68,,3-1b 15% lenticel,DO NOT USE FOR FLOWPACK,,15,13/1,16.5,12,16.5,80,24,17/01,96,,,,,,,,,,,0,7%,6%,14%,9-Dec,13-Jan,13-Jan,35,0,4,39
3-1,Morocco,MAROCAVO,12618,33346,33346-16,18 (10kg),90,3,45,,3-1c,,,15,13/1,16.5,12,16.5,80,24,20/01,90,,,,,,,,,,,0,2%,2%,4%,1-Jan,9-Jan,13-Jan,8,4,7,19
3-1,Chile,SUBSOLE,38576,33318,2685861932,22 (10kg),120,3,68,,3-1c. 5% colour (13kg),,,14,13/1,18,12,18,80,24,18/01,120,,,,,,,,,,,0,0%,0%,0%,9-Dec,10-Jan,13-Jan,32,3,5,40
3-1,Chile,SUBSOLE,38576,33318,2685862228,22 (10kg),120,3,67,,3-1c,,,14,13/1,18,12,18,80,24,18/01,120,,,,,,,,,,,0,0%,0%,0%,10-Dec,10-Jan,13-Jan,31,3,5,39
3-1,Chile,SUBSOLE,38576,33318,2685862235,22 (10kg),120,3,67,,3-1c,,,14,13/1,18,12,18,80,24,18/01,120,,,,,,,,,,,0,0%,0%,0%,10-Dec,10-Jan,13-Jan,31,3,5,39
3-1,Morocco,MOROCCANPURE,44935,33363,33363-02,14 (4kg),220,3,38,,3-1c,,,15,13/1,16.5,12,16.5,80,24,18/01,111,,19/01,109,,,,,,,,0,3%,3%,6%,8-Jan,13-Jan,13-Jan,5,0,5,10
3-1,Morocco,MOROCCANPURE,44935,33363,33363-09,20 (4kg),220,3,38,,3-1c,,,15,13/1,16.5,12,16.5,80,24,19/01,220,,,,,,,,,,,0,2%,1%,4%,8-Jan,13-Jan,13-Jan,5,0,6,11
3-1,Morocco,MOROCCANPURE,44935,33363,33363-12,20 (4kg),220,3,38,,3-1c,,,15,13/1,16.5,12,16.5,80,24,19/01,219,,17/01,1,,,,,,,,0,2%,1%,4%,8-Jan,13-Jan,13-Jan,5,0,6,11
3-1,Morocco,MOROCCANPURE,44935,33363,33363-13,20 (4kg),220,3,38,,3-1c,,,15,13/1,16.5,12,16.5,80,24,19/01,220,,,,,,,,,,,0,2%,2%,4%,8-Jan,13-Jan,13-Jan,5,0,6,11
3-1,Colombia,Cartama Europe B.V.,,33367,33367-01,24 (10kg),120,3,44972,,3-1d,,,15,13/1,16.5,12,16.5,80,24,18/01,120,,,,,,,,,,,0,3%,3%,6%,,13-Jan,13-Jan,44939,0,5,44944
3-1,Colombia,Cartama Europe B.V.,,33367,33367-02,24 (10kg),120,3,44972,,3-1d,,,15,13/1,16.5,12,16.5,80,24,18/01,120,,,,,,,,,,,0,3%,3%,6%,,13-Jan,13-Jan,44939,0,5,44944
3-1,Colombia,Cartama Europe B.V.,,33367,33367-03,24 (10kg),120,3,44972,,3-1d,,,15,13/1,16.5,12,16.5,80,24,18/01,120,,,,,,,,,,,0,3%,3%,6%,,13-Jan,13-Jan,44939,0,5,44944
3-1,Colombia,FAIRCONNECTION,,33393,33393-01,24 (10kg),120,3,44972,,3-1d,,,15,13/1,16.5,12,16.5,80,24,20/01,120,,,,,,,,,,,0,3%,4%,7%,,13-Jan,13-Jan,44939,0,7,44946
3-1,Spain,JALHUCA,88131,33397,33397-01,Bio 24 (4kg),240,3,44972,,3-1d,,,15,13/1,16.5,12,16.5,80,24,16/01,107,81,18/01,133,69,20/01,12,,,138,,0,0%,1%,1%,,13-Jan,13-Jan,44939,0,3,44942
3-2,Morocco,EXPORT OPTIMUM (UK CC),44027,33331,33331-13,16 (4kg),240,3,55,,3-2a,,,18,16/1,19,12,19,80,24,20/01,240,,,,,,,,,,,0,10%,3%,13%,22-Dec,2-Jan,16-Jan,11,14,4,29
3-2,Morocco,EXPORT OPTIMUM (UK CC),44027,33331,33331-14,16 (4kg),240,3,55,,3-2a,,,18,16/1,19,12,19,80,24,20/01,240,,,,,,,,,,,0,10%,3%,13%,22-Dec,2-Jan,16-Jan,11,14,4,29
3-2,Morocco,EXPORT OPTIMUM (UK CC),44027,33331,33331-15,16 (4kg),240,3,55,,3-2a,,,18,16/1,19,12,19,80,24,20/01,240,,,,,,,,,,,0,9%,3%,13%,22-Dec,2-Jan,16-Jan,11,14,4,29
3-2,Morocco,MAROCAVO,12618,33346,33346-17,18 (10kg),90,3,45,,3-2a,,,18,16/1,19,12,19,80,24,20/01,90,,,,,,,,,,,0,1%,2%,3%,1-Jan,9-Jan,16-Jan,8,7,4,19
3-2,Morocco,MAROCAVO,12618,33346,33346-18,18 (10kg),90,3,45,,3-2a,,,18,16/1,19,12,19,80,24,23/01,90,,,,,,,,,,,0,2%,2%,4%,1-Jan,9-Jan,16-Jan,8,7,7,22
3-2,Chile,SUBSOLE,38576,33318,2685862280,18 (10kg),120,3,65,,3-2 a5% colour (13kg),,,18,16/1,19,12,19,80,24,23/01,120,,,,,,,,,,,0,1%,0%,1%,12-Dec,10-Jan,16-Jan,29,6,7,42
3-2,Colombia,FAIRCONNECTION,88062,33393,33393-02,24 (10kg),120,3,44972,,3-2a,,,18,16/1,19,12,19,80,24,20/01,120,,,,,,,,,,,0,0%,5%,5%,,13-Jan,16-Jan,44939,3,4,44946
3-2,Colombia,AGUACATES FLOREZ,2080,33337,12431,28-32 (11.3kg),96,3,80,,"3-2a. P:1,5-13kg, 15% lenticel",,,18,16/1,19,12,19,80,24,19/01,96,,,,,,,,,,,0,0%,10%,10%,27-Nov,13-Jan,16-Jan,47,3,3,53
3-2,Colombia,AGUACATES FLOREZ,2080,33337,12461,28-32 (11.3kg),96,3,80,,"3-2a. P:3-6kg, 15% lenticel",,,18,16/1,19,12,19,80,24,19/01,96,,,,,,,,,,,0,0%,10%,10%,27-Nov,13-Jan,16-Jan,47,3,3,53
3-2,Morocco,MAROCAVO,12618,33395,33395-03,14 (4kg),220,3,40,,3-2b,,,18,16/1,19,12,19,80,24,23/01,220,,,,,,,,,,,0,0%,0%,0%,6-Jan,16-Jan,16-Jan,10,0,7,17
3-2,Morocco,MAROCAVO,12618,33395,33395-04,14 (4kg),220,3,40,,3-2b,,,18,16/1,19,12,19,80,24,20/01,202,,23/01,18,,,,,,,,0,3%,1%,4%,6-Jan,16-Jan,16-Jan,10,0,4,14
3-2,Morocco,MAROCAVO,12618,33395,33395-20,20 (4kg),220,3,40,,3-2b,,,18,16/1,19,12,19,80,24,20/01,220,,,,,,,,,,,0,1%,1%,2%,6-Jan,16-Jan,16-Jan,10,0,4,14
3-2,Morocco,MAROCAVO,12618,33395,33395-21,20 (4kg),220,3,40,,3-2b,,,18,16/1,19,12,19,80,24,20/01,220,,,,,,,,,,,0,1%,1%,2%,6-Jan,16-Jan,16-Jan,10,0,4,14
3-2,Morocco,MAROCAVO,12618,33395,33395-22,20 (4kg),220,3,40,,3-2b,,,18,16/1,19,12,19,80,24,20/01,220,,,,,,,,,,,0,1%,1%,2%,6-Jan,16-Jan,16-Jan,10,0,4,14
3-2,Morocco,MAROCAVO,12618,33395,33395-23,22 (4kg),220,3,40,,3-2b,,,18,16/1,19,12,19,80,24,20/01,220,,,,,,,,,,,0,0%,3%,3%,6-Jan,16-Jan,16-Jan,10,0,4,14
3-2,Morocco,MAROCAVO,12618,33395,33395-24,22 (4kg),220,3,40,,3-2b,,,18,16/1,19,12,19,80,24,20/01,220,,,,,,,,,,,0,0%,3%,3%,6-Jan,16-Jan,16-Jan,10,0,4,14
3-2,Morocco,MAROCAVO,12618,33395,33395-25,22 (4kg),220,3,40,,3-2b,,,18,16/1,19,12,19,80,24,20/01,220,,,,,,,,,,,0,0%,0%,0%,6-Jan,16-Jan,16-Jan,10,0,4,14
3-2,Morocco,MAROCAVO,12618,33395,33395-26,24 (4kg),220,3,40,,3-2b,,,18,16/1,19,12,19,80,24,20/01,220,52,25/01,52,,,,,,,,0,0%,0%,0%,6-Jan,16-Jan,16-Jan,10,0,4,14
3-2,Colombia,FAIRCONNECTION,2080,33366,33366-01,24 (4kg),264,3,44972,,3-2c,,,16,17/1,19,12,20,80,24,23/01,264,,,,,,,,,,,0,1%,2%,3%,,16-Jan,17-Jan,44942,1,6,44949
3-2,Colombia,FAIRCONNECTION,2080,33366,33366-02,24 (4kg),264,3,44972,,3-2c,,,16,17/1,19,12,20,80,24,23/01,264,,,,,,,,,,,0,1%,2%,3%,,16-Jan,17-Jan,44942,1,6,44949
3-2,Colombia,FAIRCONNECTION,2080,33366,33366-03,24 (4kg),264,3,44972,,3-2c,,,16,17/1,19,12,20,80,24,23/01,264,,,,,,,,,,,0,1%,1%,2%,,16-Jan,17-Jan,44942,1,6,44949
3-2,Spain,JALHUCA,88131,33406,33406-01,Bio 26 (6kg),150,3,44972,,3-2c,,,16,17/1,19,12,20,80,24,20/01,150,,,,,,,,,,,0,0%,1%,1%,,16-Jan,17-Jan,44942,1,3,44946
3-2,Morocco,MOROCCANPURE,44935,33363,33363-21,20 (4kg),220,3,38,,3-2d,,,16,17/1,19,12,20,80,24,23/01,220,,,,,,,,,,,0,5%,2%,7%,8-Jan,13-Jan,17-Jan,5,4,6,15
3-2,Morocco,MOROCCANPURE,44935,33363,33363-25,20 (4kg),220,3,38,,3-2d,,,16,17/1,19,12,20,80,24,23/01,220,,,,,,,,,,,0,5%,2%,7%,8-Jan,13-Jan,17-Jan,5,4,6,15
3-2,Morocco,MAROCAVO,12618,33395,33395-19,20 (4kg),220,3,40,,3-2d,,,16,17/1,19,12,20,80,24,20/01,220,,,,,,,,,,,0,1%,1%,2%,6-Jan,16-Jan,17-Jan,10,1,3,14
3-2,Colombia,AGUACATES FLOREZ,2080,33313,12803,26 (10kg),120,3,64,,"3-2e 15% lenticel, 30% piece underweight",,,16,17/1,19,12,20,80,24,20/01,19,,20/01,101,9,27/01,9,,,,,0,18%,0%,18%,13-Dec,5-Jan,17-Jan,23,12,3,38
3-2,Morocco,MOROCCANPURE,44935,33368,33368-15,20 (4kg),220,3,36,,"3-2e/15%lenticel, 5%sunb, 2%blackcold",,,16,17/1,19,12,20,80,24,23/01,220,,,,,,,,,,,0,0%,0%,0%,10-Jan,16-Jan,17-Jan,6,1,6,13
3-2,Morocco,MOROCCANPURE,44935,33368,33368-24,16 (4kg),220,3,36,,"3-2f 15%lenticel, 5%sunb, 2%blackcold",,,16,17/1,19,12,20,80,24,23/01,220,,,,,,,,,,,0,2%,7%,9%,10-Jan,16-Jan,17-Jan,6,1,6,13
3-2,Morocco,MAROCAVO,12618,33400,18-VF1128,22 (4kg),240,3,41,,3-2f,,,16,17/1,19,12,20,80,24,20/01,240,65,23/01,65,,,,,,,,0,0%,2%,2%,5-Jan,17-Jan,17-Jan,12,0,3,15
3-2,Morocco,MAROCAVO,12618,33400,19-VF1128,22 (4kg),240,3,41,,3-2f,,,16,17/1,19,12,20,80,24,23/01,240,,,,,,,,,,,0,0%,1%,1%,5-Jan,17-Jan,17-Jan,12,0,6,18
3-2,Morocco,MAROCAVO,12618,33400,20-VF1128,24 (4kg),240,3,41,,3-2f,,,16,17/1,19,12,20,80,24,25/01,240,,,,,,,,,,,0,1%,1%,2%,5-Jan,17-Jan,17-Jan,12,0,8,20
3-2,Colombia,AGUACATES FLOREZ,2080,33337,12722,28-32 (11.3kg),96,3,68,,3-2g,,,15,18/1,,,,,,20/01,38,,23/01,41,,27/01,17,,,,,0,0%,5%,5%,9-Dec,13-Jan,18-Jan,35,5,2,42
3-2,Colombia,AGUACATES FLOREZ,2080,33337,12738,28-32 (11.3kg),96,3,68,,3-2h,,,15,18/1,,,,,,23/01,96,,,,,,,,,,,0,0%,0%,0%,9-Dec,13-Jan,18-Jan,35,5,5,45
4-1,Morocco,MOROCCANPURE,44935,33363,33363-07,18 (4kg),220,3,38,,4-1a,,,17,19/1,16,12,16.5,80,24,26/01,220,,,,,,,,,,,0,0%,0%,0%,8-Jan,13-Jan,19-Jan,5,6,7,18
4-1,Morocco,MOROCCANPURE,44935,33363,33363-14,14 (4kg),220,3,38,,4-1a,,,17,19/1,16,12,16.5,80,24,23/01,129,,24/01,91,,,,,,,,0,4%,4%,7%,8-Jan,13-Jan,19-Jan,5,6,4,15
4-1,Morocco,MOROCCANPURE,44935,33363,33363-15,18 (4kg),220,3,38,,4-1a,,,17,19/1,16,12,16.5,80,24,25/01,220,,,,,,,,,,,0,2%,1%,3%,8-Jan,13-Jan,19-Jan,5,6,6,17
4-1,Morocco,MOROCCANPURE,44935,33363,33363-16,18 (4kg),220,3,38,,4-1a,,,17,19/1,16,12,16.5,80,24,25/01,220,,,,,,,,,,,0,1%,1%,3%,8-Jan,13-Jan,19-Jan,5,6,6,17
4-1,Morocco,MOROCCANPURE,44935,33363,33363-18,14 (4kg),220,3,38,,4-1a,,,17,19/1,16,12,16.5,80,24,24/01,220,,,,,,,,,,,0,4%,4%,8%,8-Jan,13-Jan,19-Jan,5,6,5,16
4-1,Morocco,MOROCCANPURE,44935,33363,33363-20,14 (4kg),220,3,38,,4-1a,,,17,19/1,16,12,16.5,80,24,24/01,57,,25/01,163,,,,,,,,0,2%,2%,5%,8-Jan,13-Jan,19-Jan,5,6,5,16
4-1,Morocco,MOROCCANPURE,44935,33363,33363-23,14 (4kg),220,3,38,,4-1a,,,17,19/1,16,12,16.5,80,24,24/01,220,,,,,,,,,,,0,4%,5%,8%,8-Jan,13-Jan,19-Jan,5,6,5,16
4-1,Morocco,FRUITPRO-S,25842,33407,33407-06,20 (4kg),230,3,44972,,"4-1a skindef, 15% lentic, 40%pieceunderweight",,,17,19/1,16,12,16.5,80,24,24/01,230,,,,,,,,,,,0,1%,1%,3%,,16-Jan,19-Jan,44942,3,5,44950
4-1,Morocco,FRUITPRO-S,25842,33407,33407-07,20 (4kg),230,3,44972,,"4-1a skindef, 15% lentic, 40%pieceunderweight",,,17,19/1,16,12,16.5,80,24,24/01,230,,,,,,,,,,,0,1%,1%,3%,,16-Jan,19-Jan,44942,3,5,44950
4-1,Morocco,FRUITPRO-S,25842,33407,33407-08,20 (4kg),230,3,44972,,"4-1a skindef, 15% lentic, 40%pieceunderweight",,,17,19/1,16,12,16.5,80,24,24/01,230,,,,,,,,,,,0,1%,1%,3%,,16-Jan,19-Jan,44942,3,5,44950
4-1,Morocco,FRUITPRO-S,25842,33407,33407-09,20 (4kg),230,3,44972,,"4-1a skindef, 15% lentic, 40%pieceunderweight",,,17,19/1,16,12,16.5,80,24,24/01,230,,,,,,,,,,,0,1%,1%,2%,,16-Jan,19-Jan,44942,3,5,44950
4-1,Morocco,FRUITPRO-S,25842,33407,33407-10,20 (4kg),230,3,44972,,"4-1a skindef, 15% lentic, 40%pieceunderweight",,,17,19/1,16,12,16.5,80,24,24/01,230,,,,,,,,,,,0,1%,1%,2%,,16-Jan,19-Jan,44942,3,5,44950
4-1,Morocco,MOROCCANPURE,44935,33368,33368-01,18 (4kg),220,3,36,,"4-1a/15%lenticel, 5%sunb, 2%blackcold",,,17,19/1,16,12,16.5,80,24,24/01,220,,,,,,,,,,,0,2%,1%,4%,10-Jan,16-Jan,19-Jan,6,3,5,14
4-1,Morocco,MOROCCANPURE,44935,33368,33368-02,16 (4kg),220,3,36,,"4-1a/15%lenticel, 5%sunb, 2%blackcold",,,17,19/1,16,12,16.5,80,24,24/01,220,,,,,,,,,,,0,2%,1%,3%,10-Jan,16-Jan,19-Jan,6,3,5,14
4-1,Morocco,MOROCCANPURE,44935,33368,33368-03,16 (4kg),220,3,36,,"4-1a/15%lenticel, 5%sunb, 2%blackcold",,,17,19/1,16,12,16.5,80,24,23/01,220,,,,,,,,,,,0,1%,7%,8%,10-Jan,16-Jan,19-Jan,6,3,4,13
4-1,Morocco,MOROCCANPURE,44935,33368,33368-04,14 (4kg),220,3,36,,"4-1a/15%lenticel, 5%sunb, 2%blackcold",,,17,19/1,16,12,16.5,80,24,23/01,220,,,,,,,,,,,0,5%,5%,9%,10-Jan,16-Jan,19-Jan,6,3,4,13
4-1,Morocco,MOROCCANPURE,44935,33368,33368-06,16 (4kg),220,3,36,,"4-1a/15%lenticel, 5%sunb, 2%blackcold",,,17,19/1,16,12,16.5,80,24,24/01,220,,,,,,,,,,,0,2%,1%,3%,10-Jan,16-Jan,19-Jan,6,3,5,14
4-1,Morocco,MOROCCANPURE,44935,33368,33368-07,14 (4kg),220,3,36,,"4-1a/15%lenticel, 5%sunb, 2%blackcold",,,17,19/1,16,12,16.5,80,24,23/01,220,,,,,,,,,,,0,5%,5%,10%,10-Jan,16-Jan,19-Jan,6,3,4,13
4-1,Morocco,MOROCCANPURE,44935,33368,33368-08,16 (4kg),220,3,36,,"4-1a/15%lenticel, 5%sunb, 2%blackcold",13/14 degrees when came upstairs,,17,19/1,16,12,16.5,80,24,23/01,220,,,,,,,,,,,0,2%,7%,9%,10-Jan,16-Jan,19-Jan,6,3,4,13
4-1,Morocco,MOROCCANPURE,44935,33368,33368-09,18 (4kg),220,3,36,,"4-1a/15%lenticel, 5%sunb, 2%blackcold",,,17,19/1,16,12,16.5,80,24,24/01,220,,,,,,,,,,,0,2%,1%,3%,10-Jan,16-Jan,19-Jan,6,3,5,14
4-1,Morocco,MOROCCANPURE,44935,33368,33368-11,18 (4kg),220,3,36,,"4-1a/15%lenticel, 5%sunb, 2%blackcold",,,17,19/1,16,12,16.5,80,24,24/01,220,,,,,,,,,,,0,1%,1%,2%,10-Jan,16-Jan,19-Jan,6,3,5,14
4-1,Morocco,MOROCCANPURE,44935,33368,33368-13,16 (4kg),220,3,36,,"4-1a/15%lenticel, 5%sunb, 2%blackcold",,,17,19/1,16,12,16.5,80,24,26/01,220,,,,,,,,,,,0,2%,1%,3%,10-Jan,16-Jan,19-Jan,6,3,7,16
4-1,Morocco,MOROCCANPURE,44935,33368,33368-14,18 (4kg),220,3,36,,"4-1a/15%lenticel, 5%sunb, 2%blackcold",,,17,19/1,16,12,16.5,80,24,26/01,220,,,,,,,,,,,0,3%,2%,5%,10-Jan,16-Jan,19-Jan,6,3,7,16
4-1,Morocco,MOROCCANPURE,44935,33368,33368-17,18 (4kg),220,3,36,,"4-1a/15%lenticel, 5%sunb, 2%blackcold",,,17,19/1,16,12,16.5,80,24,26/01,220,,,,,,,,,,,0,3%,1%,4%,10-Jan,16-Jan,19-Jan,6,3,7,16
4-1,Morocco,MOROCCANPURE,44935,33368,33368-18,20 (4kg),220,3,36,,"4-1a/15%lenticel, 5%sunb, 2%blackcold",,,17,19/1,16,12,16.5,80,24,25/01,220,,,,,,,,,,,0,3%,1%,4%,10-Jan,16-Jan,19-Jan,6,3,6,15
4-1,Morocco,MOROCCANPURE,44935,33368,33368-25,20 (4kg),220,3,36,,"4-1a/15%lenticel, 5%sunb, 2%blackcold",,,17,19/1,16,12,16.5,80,24,25/01,220,,,,,,,,,,,0,3%,0%,3%,10-Jan,16-Jan,19-Jan,6,3,6,15
4-1,Colombia,BRATZ-S,91168,33396,33396-01,30 (10kg),120,3,44972,,4-1b,,,18,20/1,18,12,19,80,24,23/01,21,,25/01,46,,27/01,53,,,,,0,0%,10%,10%,,12-Jan,19-Jan,44938,7,4,44949
4-1,Colombia,FAIRCONNECTION,95156,33411,33411-01,22 (10kg),120,3,44972,,4-1b,,,18,20/1,18,12,19,80,24,24/01,120,,,,,,,,,,,0,7%,7%,13%,,17-Jan,19-Jan,44943,2,5,44950
4-1,Colombia,FAIRCONNECTION,88062,33411,33411-02,26 (10kg),120,3,44972,,4-1b,Vascular/lenti/sensitive,,18,20/1,18,12,19,80,24,30/01,1,,30/01,1,,31/01,118,,,,,0,2%,13%,14%,,17-Jan,19-Jan,44943,2,11,44956
4-1,Colombia,FAIRCONNECTION,88062,33411,33411-03,26 (10kg),120,3,44972,,4-1b,Vascular/lenti/sensitive,,18,20/1,18,12,19,80,24,24/01,120,,,,,,,,,,,0,10%,1%,11%,,17-Jan,19-Jan,44943,2,5,44950
4-1,Chile,SUBSOLE,38576,33334,2685861974,14 (10kg),120,3,60,,4-1b,,,20,20/1,16,,16,80,24,26/01,120,,,,,,,,,,,0,2%,0%,2%,17-Dec,18-Jan,19-Jan,32,1,7,40
4-1,Chile,SUBSOLE,"385,765,260,171,844",33334,2685862430,14 (10kg),120,3,61,,4-1b,,,20,20/1,16,,16,80,24,25/01,120,,,,,,,,,,,0,1%,0%,1%,16-Dec,18-Jan,19-Jan,33,1,6,40
4-1,Chile,SUBSOLE,38576,33334,2685862438,20 (10kg),120,3,58,,4-1b,,,18,20/1,18,12,19,80,24,26/01,120,,,,,,,,,,,0,0%,0%,0%,19-Dec,18-Jan,19-Jan,30,1,7,38
4-1,Chile,SUBSOLE,38576,33334,2685862443,20 (10kg),120,3,58,,4-1b,,,18,20/1,18,12,19,80,24,26/01,120,,,,,,,,,,,0,1%,0%,1%,19-Dec,18-Jan,19-Jan,30,1,7,38
4-1,Colombia,AGUACATES FLOREZ,2080,33355,13192,20 (4kg),264,3,53,,"4-1b 5% lentic, 3% sunb",,,18,20/1,18,12,19,80,24,27/01,264,,,,,,,,,,,0,1%,1%,2%,24-Dec,18-Jan,19-Jan,25,1,8,34
4-1,Colombia,AGUACATES FLOREZ,2080,33355,13204,20 (4kg),264,3,52,,"4-1b 5% lentic, 3% sunb",collapsed bottom layers,,18,20/1,18,12,19,80,24,26/01,264,,,,,,,,,,,0,1%,1%,2%,25-Dec,18-Jan,19-Jan,24,1,7,32
4-1,Colombia,AGUACATES FLOREZ,2080,33355,13209,20 (4kg),264,3,52,,"4-1b 5% lentic, 3% sunb",collapsed bottom layers,,18,20/1,18,12,19,80,24,26/01,264,,,,,,,,,,,0,1%,0%,2%,25-Dec,18-Jan,19-Jan,24,1,7,32
4-1,Colombia,AGUACATES FLOREZ,2080,33355,13220,20 (4kg),264,3,52,,"4-1b 5% lentic, 3% sunb",,,18,20/1,18,12,19,80,24,30/01,264,,,,,,,,,,,0,1%,2%,3%,25-Dec,18-Jan,19-Jan,24,1,11,36
4-1,Chile,SUBSOLE,38576,33334,2685862361,22 (10kg),120,3,63,,4-1b,,,18,20/1,18,12,19,80,24,23/01,120,,,,,,,,,,,0,0%,0%,0%,14-Dec,18-Jan,19-Jan,35,1,4,40
4-1,Chile,SUBSOLE,38576,33334,2685862367,22 (10kg),120,3,63,,4-1b,,,18,20/1,18,12,19,80,24,25/01,120,,,,,,,,,,,0,1%,0%,1%,14-Dec,18-Jan,19-Jan,35,1,6,42
4-1,Chile,SUBSOLE,38576,33334,2685862372,22 (10kg),120,3,63,,4-1b,,,18,20/1,18,12,19,80,24,23/01,120,,,,,,,,,,,0,0%,0%,0%,14-Dec,18-Jan,19-Jan,35,1,4,40
4-1,Chile,SUBSOLE,38576,33334,2685862378,22 (10kg),120,3,62,,4-1b,,,18,20/1,18,12,19,80,24,27/01,120,,,,,,,,,,,0,0%,0%,0%,15-Dec,18-Jan,19-Jan,34,1,8,43
4-1,Colombia,AGUACATES FLOREZ,2080,33355,13187,22 (4kg),264,3,53,,"4-1b 5% lentic, 3% sunb",,,18,20/1,18,12,19,80,24,25/01,264,,,,,,,,,,,0,1%,1%,2%,24-Dec,18-Jan,19-Jan,25,1,6,32
4-1,Colombia,AGUACATES FLOREZ,2080,33355,13206,22 (4kg),264,3,52,,"4-1b 5% lentic, 3% sunb",,,18,20/1,18,12,19,80,24,25/01,264,,,,,,,,,,,0,1%,1%,2%,25-Dec,18-Jan,19-Jan,24,1,6,31
4-1,Colombia,AGUACATES FLOREZ,2080,33355,13213,22 (4kg),264,3,52,,"4-1b 5% lentic, 3% sunb",,,18,20/1,18,12,19,80,24,25/01,264,,,,,,,,,,,0,1%,1%,2%,25-Dec,18-Jan,19-Jan,24,1,6,31
4-1,Colombia,AGUACATES FLOREZ,2080,33355,13214,22 (4kg),264,3,52,,"4-1b 5% lentic, 3% sunb",,,18,20/1,18,12,19,80,24,24/01,264,,,,,,,,,,,0,0%,0%,0%,25-Dec,18-Jan,19-Jan,24,1,5,30
4-1,Colombia,AGUACATES FLOREZ,2080,33355,13186,24 (4kg),264,3,53,,"4-1b 5% lentic, 3% sunb",,,18,20/1,18,12,19,80,24,27/01,264,13,01/02,13,,,,,,,,0,0%,2%,2%,24-Dec,18-Jan,19-Jan,25,1,8,34
4-1,Colombia,AGUACATES FLOREZ,2080,33355,13193,24 (4kg),264,3,53,,"4-1b 5% lentic, 3% sunb",,,18,20/1,18,12,19,80,24,26/01,108,,27/01,156,,,,,,,,0,0%,3%,3%,24-Dec,18-Jan,19-Jan,25,1,7,33
4-1,Colombia,AGUACATES FLOREZ,2080,33355,13102,26 (10kg),120,3,55,,"4-1b 10% lentic, 20% piece underweight",,,18,20/1,18,12,19,80,24,25/01,120,51,27/01,51,,,,,,,,0,2%,3%,4%,22-Dec,18-Jan,19-Jan,27,1,6,34
4-1,Colombia,AGUACATES FLOREZ,2080,33355,13123,28 (10kg),120,3,54,,"4-1b 10% lentic, 50% piece underweight",,,18,20/1,18,12,19,80,24,25/01,120,31,27/01,31,,,,,,,,0,4%,1%,5%,23-Dec,18-Jan,19-Jan,26,1,6,33
4-1,Chile,SUBSOLE,71844,33334,2685862404,22 (10kg),120,3,61,,4-1c,,,18,20/1,18,12,19,80,24,27/01,120,,,,,,,,,,,0,1%,0%,1%,16-Dec,18-Jan,20-Jan,33,2,7,42
4-1,Chile,SUBSOLE,"5,260,171,844",33334,2685862408,22 (10kg),120,3,61,,4-1c,,,18,20/1,18,12,19,80,24,25/01,120,,,,,,,,,,,0,0%,0%,0%,16-Dec,18-Jan,20-Jan,33,2,5,40
4-1,Colombia,AGUACATES FLOREZ,2080,33355,13218,14 (4kg),264,3,52,,"4-1c 5% lentic, 3% sunb",,,18,20/1,18,12,19,80,24,25/01,264,,,,,,,,,,,0,2%,2%,4%,25-Dec,18-Jan,20-Jan,24,2,5,31
4-1,Morocco,ORGANTO,44027,33413,33413,Bio 24 (4kg),220,3,44972,,4-1c,,,16,19/1,17,12,17.5,80,24,25/01,121,,30/01,99,,,,,,,,0,2%,4%,5%,,18-Jan,20-Jan,44944,2,5,44951
4-1,Morocco,SOLYIMPORT,90254,33412,33412-18,26 (10kg),100,3,44972,,4-1c,,,16,19/1,17,12,17.5,80,24,23/01,8,,23/01,42,,24/01,50,,,,,0,1%,0%,1%,,19-Jan,20-Jan,44945,1,3,44949
4-1,Morocco,SOLYIMPORT,90254,33412,33412-19,26 (10kg),100,3,44972,,4-1c,,,16,19/1,17,12,17.5,80,24,23/01,100,,,,,,,,,,,0,0%,9%,9%,,19-Jan,20-Jan,44945,1,3,44949
4-1,Morocco,SOLYIMPORT,90254,33412,33412-20,24 (10kg),100,3,44972,,4-1c,,,16,19/1,17,12,17.5,80,24,27/01,100,12,30/01,12,,,,,,,,0,0%,1%,1%,,19-Jan,20-Jan,44945,1,7,44953
4-2,Morocco,WESTFAL2,12618,33410,33410-01,24 (4kg),220,3,44972,,4-2,,,14,23/1,15,14,15,80,24,26/01,72,,27/01,148,87,30/01,87,,,,,0,0%,1%,1%,,20-Jan,23-Jan,44946,3,3,44952
4-1,Spain,JALHUCA,88131,33414,33414-01,Bio 26 (6kg),150,3,44972,,4-1d,,,16,19/1,17,12,17.5,80,24,26/01,123,,01/02,27,,,,,,,,0,1%,0%,1%,,20-Jan,20-Jan,44946,0,6,44952
4-1,Spain,TROPS-S,12,33419,33419-01,24 (4kg),220,3,44972,,4-1d,,,16,19/1,17,12,17.5,80,24,23/01,220,117,25/01,117,,,,,,,,0,1%,2%,3%,,20-Jan,20-Jan,44946,0,3,44949
4-1,Spain,TROPS-S,12,33419,33419-02,24 (4kg),220,3,44972,,4-1d,,,16,19/1,17,12,17.5,80,24,23/01,214,,25/01,6,,,,,,,,0,0%,1%,1%,,20-Jan,20-Jan,44946,0,3,44949
4-1,Spain,TROPS-S,12,33419,33419-03,24 (4kg),220,3,44972,,4-1d,,,16,19/1,17,12,17.5,80,24,25/01,220,29,26/01,29,,,,,,,,0,0%,1%,1%,,20-Jan,20-Jan,44946,0,5,44951
4-1,Spain,TROPS-S,12,33419,33419-04,24 (4kg),220,3,44972,,4-1d,,,16,19/1,17,12,17.5,80,24,23/01,108,,25/01,112,,,,,,,,0,0%,1%,1%,,20-Jan,20-Jan,44946,0,3,44949
4-1,Spain,TROPS-S,12,33419,33419-05,24 (4kg),220,3,44972,,4-1d,,,16,19/1,17,12,17.5,80,24,23/01,220,,,,,,,,,,,0,0%,0%,0%,,20-Jan,20-Jan,44946,0,3,44949
4-2,Chile,SUBSOLE,38576,33318,2685862276,18 (10kg),120,3,65,,4-2a,,,21,23/1,18,12,18,80,24,31/01,120,,,,,,,,,,,0,2%,0%,2%,12-Dec,10-Jan,23-Jan,29,13,8,50
4-2,Chile,SUBSOLE,38576,33318,2685862295,18 (10kg),120,3,64,,4-2a,,,21,23/1,18,12,18,80,24,31/01,120,,,,,,,,,,,0,2%,0%,2%,13-Dec,10-Jan,23-Jan,28,13,8,49
4-2,Chile,SUBSOLE,38576,33318,2685862301,18 (10kg),120,3,64,,4-2a,,,21,23/1,18,12,18,80,24,27/01,21,,01/02,99,,,,,,,,0,0%,0%,0%,13-Dec,10-Jan,23-Jan,28,13,4,45
4-2,Morocco,MOROCCANPURE,44935,33368,33368-10,14 (4kg),220,3,36,,"4-2a/15%lenticel, 5%sunb, 2%blackcold",,,14,23/1,15,14,15,80,24,27/01,220,,,,,,,,,,,0,1%,0%,2%,10-Jan,16-Jan,23-Jan,6,7,4,17
4-2,Morocco,MOROCCANPURE,44935,33368,33368-12,14 (4kg),220,3,36,,"4-2a/15%lenticel, 5%sunb, 2%blackcold",,,14,23/1,15,14,15,80,24,27/01,220,,,,,,,,,,,0,1%,0%,1%,10-Jan,16-Jan,23-Jan,6,7,4,17
4-2,Morocco,MOROCCANPURE,44935,33368,33368-16,16 (4kg),220,3,36,,"4-2a/15%lenticel, 5%sunb, 2%blackcold",,,14,23/1,15,14,15,80,24,26/01,220,,,,,,,,,,,0,0%,0%,0%,10-Jan,16-Jan,23-Jan,6,7,3,16
4-2,Morocco,MOROCCANPURE,44935,33368,33368-22,14 (4kg),220,3,36,,"4-2a/15%lenticel, 5%sunb, 2%blackcold",,,14,23/1,15,14,15,80,24,27/01,220,,,,,,,,,,,0,1%,0%,1%,10-Jan,16-Jan,23-Jan,6,7,4,17
4-2,Morocco,MAROCAVO,12618,33395,33395-01,12 (4kg),220,3,40,,4-2a,,,14,23/1,15,14,15,80,24,26/01,220,,,,,,,,,,,0,10%,0%,10%,6-Jan,16-Jan,23-Jan,10,7,3,20
4-2,Morocco,MAROCAVO,12618,33395,33395-05,14 (4kg),220,3,40,,4-2a,,,14,23/1,15,14,15,80,24,26/01,220,,,,,,,,,,,0,2%,2%,5%,6-Jan,16-Jan,23-Jan,10,7,3,20
4-2,Morocco,MAROCAVO,12618,33395,33395-06,14 (4kg),220,3,40,,4-2a,,,14,23/1,15,14,15,80,24,26/01,220,,,,,,,,,,,0,3%,2%,5%,6-Jan,16-Jan,23-Jan,10,7,3,20
4-2,Morocco,FRUITPRO-S,25842,33407,33407-11,20 (4kg),230,3,44972,,"4-2a skindef, 15% lentic, 40%pieceunderweight",,,14,23/1,15,14,15,80,24,31/01,230,,,,,,,,,,,0,0%,0%,0%,,16-Jan,23-Jan,44942,7,8,44957
4-2,Morocco,MAROCAVO,12618,33400,02-VF1128,14 (4kg),240,3,41,,4-2a/15%lenticel,,,14,23/1,15,14,15,80,24,27/01,20,,30/01,220,,,,,,,,0,0%,0%,0%,5-Jan,17-Jan,23-Jan,12,6,4,22
4-2,Morocco,MAROCAVO,12618,33400,03-VF1128,14 (4kg),240,3,41,,4-2a/15%lenticel,,,14,23/1,15,14,15,80,24,27/01,240,,,,,,,,,,,0,1%,8%,9%,5-Jan,17-Jan,23-Jan,12,6,4,22
4-2,Colombia,AGUACATES FLOREZ,2080,33354,13092,30 (10kg),120,3,55,,"4-2a 90% pieceunderweight,15% lenticel",,,21,23/1,18,12,18,80,24,30/01,80,,01/02,40,15,06/02,15,,,,,0,13%,11%,23%,22-Dec,18-Jan,23-Jan,27,5,7,39
4-2,Colombia,AGUACATES FLOREZ,2080,33354,13125,30 (10kg),120,3,54,,"4-2a 90% pieceunderweight,15% lenticel",,,21,23/1,18,12,18,80,24,27/01,88,,30/01,32,,,,,,,,0,6%,11%,17%,23-Dec,18-Jan,23-Jan,26,5,4,35
4-2,Colombia,AGUACATES FLOREZ,2080,33354,13182,30 (10kg),120,3,53,,"4-2a 90% pieceunderweight,15% lenticel",,,21,23/1,18,12,18,80,24,27/01,120,,,,,,,,,,,0,0%,13%,13%,24-Dec,18-Jan,23-Jan,25,5,4,34
4-2,Morocco,SOLYIMPORT,90254,33412,33412-14,22 (4kg),240,3,44972,,4-2a,,,14,23/1,15,14,15,80,24,26/01,55,,27/01,185,,,,,,,,0,0%,1%,1%,,19-Jan,23-Jan,44945,4,3,44952
4-2,Morocco,SOLYIMPORT,90254,33412,33412-15,22 (4kg),240,3,44972,,4-2a,,,14,23/1,15,14,15,80,24,27/01,240,,,,,,,,,,,0,1%,1%,2%,,19-Jan,23-Jan,44945,4,4,44953
4-2,Morocco,SOLYIMPORT,90254,33412,33412-16,22 (4kg),240,3,44972,,4-2a,,,14,23/1,15,14,15,80,24,27/01,240,,,,,,,,,,,0,1%,1%,2%,,19-Jan,23-Jan,44945,4,4,44953
4-2,Morocco,SOLYIMPORT,90254,33412,33412-17,22 (4kg),240,3,44972,,4-2a,,,14,23/1,15,14,15,80,24,27/01,240,,,,,,,,,,,0,1%,1%,2%,,19-Jan,23-Jan,44945,4,4,44953
4-2,Spain,TROPS-S,12,33419,33419-06,24 (4kg),220,3,44972,,4-2a,,,14,23/1,15,14,15,80,24,26/01,220,,,,,,,,,,,0,0%,0%,0%,,20-Jan,23-Jan,44946,3,3,44952
4-2,Israel,SHOHAM,84596,33405,23369031,20 (4kg),260,3,35,,4-2a J,,,,,,,,,,06/02,260,,,,,,,,,,,0,0%,1%,1%,11-Jan,23-Jan,23-Jan,12,0,14,26
4-2,Israel,SHOHAM,84596,33405,23369102,20 (4kg),260,3,35,,4-2a J,,,,,,,,,,03/02,260,,,,,,,,,,,0,0%,2%,2%,11-Jan,23-Jan,23-Jan,12,0,11,23
4-2,Colombia,BRATZ-S,91168,33396,33396-02,32 (10kg),120,3,44972,,,,,21,23/1,18,12,18,80,24,27/01,120,,,,,,,,,,,0,0%,13%,13%,,12-Jan,23-Jan,44938,11,4,44953
4-2,Morocco,SOLYIMPORT,90254,33408,33408-01,14 (4kg),240,3,44972,,4-2b,,,15,25/1,15,-,15,-,-,27/01,240,,,,,,,,,,,0,0%,0%,0%,,18-Jan,23-Jan,44944,5,4,44953
4-2,Morocco,FRUITPRO-S,25842,33421,33421-01,22 (4kg),230,3,44972,,4-2b,,,21,25/1,18,-,18,-,-,27/01,230,,,,,,,,,,,0,0%,0%,0%,,19-Jan,23-Jan,44945,4,4,44953
4-2,Morocco,SOLYIMPORT,90254,33408,33408-02,14 (4kg),240,3,44972,,4-2c,,,KOUD,,,,,,,31/01,240,,,,,,,,,,,0,1%,1%,2%,,18-Jan,24-Jan,44944,6,7,44957
,,,,,,,,,,,,,,,,,,,,,,,,,,,,,,,,,0,#DIV/0!,#DIV/0!,#DIV/0!,,,,,,,
,,,,,,,,,,,,,,,,,,,,,,,,,,,,,,,,,0,#DIV/0!,#DIV/0!,#DIV/0!,,,,,,,